Lima : 

N : -10.321576, -77.742292

S : -13.326964, -76.245980

E : -12.143122, -75.627790

O :  -10.609358, -77.885124


Peru : 

S: -18.233415, -69.937639

E: -12.506044, -68.637990

O: -5.983946, -81.149129

N: -0.038678, -75.186058