Dirección,s,Cliente,Pedido
AV GUILLERMO DANSEY CDR.9 PAR STAND 62 AS C.C.VIRG,,ROMAN   CARRASCO MERA,11848796
JR ORBEGOZO PI.2 580       LI05,,HECTOR ALFREDO   CARDAMA SINTI,16733583
CL HORACIO URTEAGA 1511       LI11,,CARLA IVON   CRESPO GALARZA,16733933
JR AFRANIO MELLO FRANCO PI.7 372 702     LI11,,SANTIAGO   YOPLAC ORTIZ,16733943
- MZ.B-3 LT25     AH RAMON CARCAMO LI01,,ALEXANDER   ESQUIVEL SENSE,16734013
AV ALFONSO UGARTE 1428 502     LI05,,ELIEZER MOISES   EUSEBIO RAMIREZ,16734083
AV ALFONSO UGARTE 1428 502     LI05,,ELIEZER MOISES   EUSEBIO RAMIREZ,16734093
JR JOSE DIAZ PI.2 460 204     LI01,,LUIS ALBERTO   CRUZADO MORENO,16734153
AV JOSE GALVEZ 441       LI13,,TANIA JESUS   FLORES PORTUGAL,16734213
JR MARISCAL LUZURRIAGA 623       LI11,,MARIBEL DEYANIRA   CACERES RODRIGUEZ,16734423
JR JORGE CHAVEZ 67 A     LI01,,MARIA TERESA   PORTUGAL PONCE,17311932
CL MARISCAL ORBEGOSO 940 101     LI05,,DORIS TERESA   ULLOA PONCE,17313132
AV ARGENTINA PAB BD STD.3 215   - CENTRO COMERCIAL,,MARIBEL   LEON RIVERA,17315882
CL  NAPO 140       LI05,,DEMETRIO FELIPE   PAULINI SANCHEZ,17316062
PR PROLONGACION OLMEDO 661 109     LI05,,JANNINA KAROLL   SANDOVAL TORRES,17317862
JR HUARAZ PI.2FICIO 13   202 UR RESIDENCIAL LAS MA,,CAROL   VARGAS ORMEÑO,17318112
JR HUARAZ BL.B PI.3 2090 303     LI21,,MARIA ESTHER   RODRIGUEZ GAMERO,17318472
AV ARENALES PI.4 395 402 UR SANTA BEATRIZ LI01,,ENCARNACION   YESQUEN ARAYA,17319782
CL    R. DOMINICANA PS-3 202 23     LI11,,LUIS ADOLFO   GARAY ARAGON,17320622
JR JORGE CHAVEZ PI.4 1549A 401     LI05,,CESAR NICOLAS   ARROYO REYES,17322862
- PI.. 1645   UR CHACRA RIOS NORTE LI01,,DANIEL INDALECIO   GONZALEZ DASSUM,17323792
AV MARIANO CORNEJO PI.2 870       LI05,,ISAAC ULISES   RODRIGUEZ ESPINOZA,17324342
- AV BOLIVIA 739 302     LI05,,JOSE FRANCISCO   VERA VELEZ,17719481
AV GENERAL GARZON ED.1283 OF.907 PSO.9 1283,,AGROINDUSTRIA FR,17721971
JR PEDRO RUIZ 467 405     LI21,,ROSA LUZ   GANOZA TORRES,17722041
JR MARISCAL LUZURIAGA PI.1P 496       LI11,,ANGELA   ALOSILLA DE BARBERIS,17723011
JR FULGENCIO VALDEZ PI.1 437       LI06,,SANDRA ALICIA   CANO ROSALINO,17723891
- ESTAD.NAC.PTA 4 CASETA 16 LADO NORT         LI01,,RADIODIFUSORA DE,11968646
JR MENDOZA MERINO 623         LI13,,ROBERTO   ALEJANDRO CHALLANCA,11968926
JR ORBEGOZO PTO.329A 263       LI05,,SARINA DOMITILA   BENAVIDES GOMEZ,11969036
- JR PILCOMAYO 855 201     LI05,,ROLANDO NICOLAS   AVILA BARRETO,17724291
"AV DANSEY,GUILLERMO CDRA 10 PAR PTO.15     AS C.C.",,BIULER RUBEN   BURGA CHACON,11848826
JR CENTENARIO  311         LI05,,INVERSIONES FERR,11850336
JR JORGE CHAVEZ 261       LI05,,VICTOR   ROBLES ELIAS,11850656
JR JORGE CHAVEZ 069       LI05,,LILIA   PORRAS BELLINA,11850746
JR SEBASTIAN BARRANCA  LT-57 795 D,,ROLANDO HUMBERTO   ORE INGA,11850816
JR NAPO PI.4 984 403 UR CHACRA COLORADA LI05,,JULIA BERTHA   VILELA LUJAN,11850846
AV ARGENTINA PAB.C LOC.11 591-A 11     LI01,,LUISA TARCILA   OBREGON PIZARRO,11850856
JR CHANCAY PI.6 987 61     LI01,,LUISA CAROLINA   BENAVIDES MENDOZA,11851146
"JR BORDA, CORNELIO PI.4 163 20     LI01",,CESAR BRAULIO   CALSIN QUISPE,11851596
JR CORNELIO BORDA 163 26     LI05,,LUZ MARIA   BENITES PACUTAY,11852226
AV ARGENTINA CDRA.8 (IMPAR)   43 NN C.C.VIRGEN DE,,ROLY RIGOBERTO   JULCARIMA BARRERA,11856376
AV ARGENTINA CDRA.8 (IMPAR)   44 NN C.C.VIRGEN DE,,ROLY RIGOBERTO   JULCARIMA BARRERA,11856406
JR HORACIO URTEAGA PI.2DO 1511       LI11,,CARLA IVON   CRESPO GALARZA,11858346
AV PASEO DE LA REPUBLICA 659       LI13,,TRANSPORTES CROM,11860946
AV ARGENTINA 575-591 PABLL.J   12 NN C.C.CHIMENEA,,JESSICA PILAR   ORTEGA HUAYHUAPUMA,11847216
JR HIPOLITO UNANUE 362       LI13,,LUZ AZUCENA RODRIGUEZ PUNTO DE MELGAR,11865106
JR G. NARANJO(BLOCK 21 PJE.17 PTO. 18) 093   UR C.,,PEDRO GUILLERMO   TUTIVEN ZAPATA,11866896
AV ISABEL LA CATOLICA (ESTADIO ) SN   UR ALIANZA (,,DILMER SOCRATES   ROJAS POMA,11870736
PR CAMANA 1014       LI21,,UNIVERSIDAD NAC.,11873596
PR CAMANA 1014       LI01,,UNIVERSIDAD NAC.,11873736
JR PABLO BERMUDEZ  MEZZANINE 143       LI01,,RECURSOS NATURAL,11875616
JR PABLO BERMUDEZ  MEZZANINE 143       LI01,,RECURSOS NATURAL,11875646
AV RAMON CARCAMO  568         LI01,,MARIA AZUCENA   GARCIA QUIROZ,11877196
"PJ DE ZELA, FRANCISCO PI.10     UR SANTA BEATRIZ L",,SERVICIO NACIONA,11878356
"PJ DE ZELA, FRANCISCO PI.10     UR SANTA BEATRIZ L",,SERVICIO NACIONA,11878686
JR CAMANA 1144-1152 STD.151     UR GALERIA COMPU-P,,IMPORTACIONES CA,11879126
"AV DANSEY,GUILLERM CDRA10 INPAR PTO.86     AS C.C.",,ERASMO ANGEL   MALPICA DE LA CRUZ,11879276
JR REP.DOMINICANA PTO.221 366   NN MERCADO SAN JOS,,MILTON CESAR   PALOMINO CHAVEZ,11880306
"AV TIRADO, ALEJANDRO PI.10 217   UR SANTA BEATRIZ",,PANAMERICANA TEL,11884436
AV ANGENTINA PAB.BD STD.3 215   NN CENTR.COMERCIAL,,MARIBEL   LEON RIVERA,11885246
CL PACASMAYO STD.II 299   NN C.C. CENTRO NUEVO LI0,,ELICEO GERMAN   JAIMES PARDO,11886086
JR GENERAL VARELA 871 A     LI05,,SELMIRA   CORDOVA PINEDO,11888746
"CL SANCHEZ, NATALIO 238-240         LI11",,MARIBEL   ALVAREZ MALLQUI,11888986
AV ARGENTINA STD.2144 530   NN C.C.EL PROGRESO LI0,,ANA MARIA CONSUE   ARONI TARDIO,11889786
JR ORBEGOZO 263 29     LI05,,ELICEO   AYALA JARA,11889946
CL LOS MOGABUROS 148 B     LI11,,GUSTAVO   ZAVALA AMESQUITA,11891496
JR HORACIO URTEAGA TDA.169 1438   - GALERIA EL REY,,JENNIFER MILAGRO   GOICOCHEA MONTENEGRO,11892776
CL CAPITAN RUY DIAS 257   PJ EL PLANETA LI01,,EMMA MARUJA   CASTAÑEDA ABARCA,11893706
CL PUERTA 14 ESTADIO NACIONAL PI.2P   2P UR TRIBUN,,FEDERACION DEPOR,11894556
JR RECUAY PI.2 381A       LI05,,JACQUELINE CAROL   VALENCIA JUNCHAYA,11895196
PR ESPAÑA 700   NN CENTRO HISTORICO LI01,,MINISTERIO DEL I,11895416
AV ARGENTINA CDR.3 (TDA.K-60)     NN CC.EL PROGRES,,MARCO ANTONIO   CUCHO GALLARDO,11900706
AV ESPAÑA CDR.3     NN CENTRO HISTORICO LI01,,POLICIA NACIONAL,11901266
AV ESPAÑA CDR.3     NN CENTRO HISTORICO LI01,,POLICIA NACIONAL,11901286
CL CAMILO CARRILLO 114       LI11,,CONTRALORIA GENE,11902656
"AV AGOSTO, 6 DE 589 401     LI11",,BENJAMIN   CHUNGA VARGAS-MACHUCA,11903176
"AV GALVEZ,J.CDR.2 BL.43 PJ.21 PTO.28 S-N   NN CENT",,MANUEL HECTOR   SARMIENTO PUQUIO,11903546
JR PABLO BERMUDEZ 179       LI01,,LIDA MARIZHA HERMOSILLA CHAVEZ,11903836
AV FRANCISCO LUNA PIZARRO 440       LI13,,VICTOR ENRIQUE YZAGUIRRE AGUILAR,11904156
JR HORACIO URTEAGA 1450 270     LI11,,MARISOL   QUEZADA SALVATIERRA,11904896
AV MARISCAL OSCAR R.BENAVIDES 525       LI01,,AVANZIT PERU S.A,11906836
JR ORBEGOZO PTO.17 263       LI05,,JOSEFINA   BOLILLA ARIAS,11907116
JR JORG CHAVEZ 1777 102     LI05,,NATALIA DELIA   BERROCAL RIVADENEYRA,11907146
AV NICOLAS DE PIEROLA 253 2     LI01,,ASOC.NAC.DE EDUC,11907546
AV ARGENTINA 530-538  PUESTO 1743         LI01,,SEVER WILFREDO   REYES CLAUDIO,11907966
AV ARGENTINA 215 215       LI01,,MARCELO DEMETRIO   VILLEGAS PORTUGAL,11908356
JR JORGE CHAVEZ 344 101     LI05,,ROSA   CHAVARRY PERDIZ,11910266
AV ARGENTINA 575-591 PTO.5     AS C.C LA CHIMENEA,,JOSE LUIS   ARCE CAHUANA,11910286
AV ARGENTINA 575-591 PTO.14     AS C.C. LA CHIMENE,,GABRIEL   GAUNA SEDANO,11910296
JR PEDRO RUIZ PI.4 467 405     LI21,,ROSA LUZ   GANOZA TORRES,11911666
JR FULGENCIO VALDEZ 444 101     LI05,,MANUEL AUGUSTO   ARAUJO ESPINOZA,11911676
AV SANTA CRUZ 131 A2 AG ANGAMOS LI11,,MARIA ELSA   PORTUGAL VALCARCEL VDA D,11913826
AV NICOLAS DE PIEROLA 570       LI01,,TRINIDAD   AGUILAR MAMANI DE LLASH,11914166
JR CENTENARIO 328       LI05,,LEONARDO MARINO MINAYA CASTILLO,11914196
"AV GALVEZ, JOSE 950 PI.3 954 207 UR SANTA BEATRIZ",,MARTHA ELENA   MORENO CORALES DE SALC,11915436
AV VICENTE MORALES DUAREZ 798   UR MIRONES ALTO LI,,LUIS   AVALOS JUAREZ,11915476
PJ FRANCISCO DE ZELA PI.10 150       LI11,,SERVICIO NACIONA,11916476
JR GARCIA NARANJO PJ.14 B38 TDA.9 093   NN CENT.CO,,LUZ MARINA   PUMA LAYME,11916506
AV AREQUIPA PI.7 810       LI01,,SERVICIO DE ADMI,11918086
AV AREQUIPA PI.7 810       LI01,,SERVICIO DE ADMI,11918096
AV FRANCISCO LUNA PIZARRO 100       LI13,,MONER   BONIFACIO GRABIEL,11918406
AV JOSE GALVEZ BL.21 PJ 17 250 24 AS C.C.COMERCIAL,,CELSO   ROMAN HUAMANI,11919076
AV JOSE GALVEZ BL.21 PJ.17 TDA.24 250   AS C.C.POL,,CELSO   ROMAN HUAMANI,11919106
AV 6 DE AGOSTO PI.5TO 720 14     LI11,,MERCEDES   CRUZ DE ALVAREZ,11921046
"AV DANSEY, GUILLERMO TDA.326 330       LI01",,EMPRESAS COMERCI,11923926
CL GENERAL VARELA 1676 1P     LI05,,LUCY   GUEVARA NUREÑA DE CABRE,11924876
CL MARISCAL LUZURRIAGA 496       LI11,,ANGELA   ALOSILLA DE BARBERIS,11925946
JR GENERAL VARELA PI.4 1550       LI05,,ZONIA MARIA   VILLA NUNEZ,11929396
JR WASHINGTON PI.3 1338   NN CENTRO HISTORICO LI01,,MASTERCARD PERU,11930176
PJ MORALES DUAREZ MZ.B LT72     AH 9 DE OCTUBRE ET,,JEYSI  GIOVANA   SOLARI GARAY,11930426
AV HUANCAVELICA CDRA-13 STD.11 .   NN CENTRO HISTO,,ELICEO GERMAN   JAIMES PARDO,11930926
JR IQUIQUE PI.2 (ESQ. UGARTE Y VENE.) 177       LI,,ASPERSUD,11931146
CL GENERAL BORGOÑO PI.3 206       LI21,,RAUL   ZEVALLOS PIZARRO,11931316
"AV GARZON, GENERAL TOR.D PI.10MO 685 1001     LI11",,MARIANELA VENANC   DANIEL LEIVA SALAZAR,11932296
AV ALFONSO UGARTE 315       LI01,,SONIA MAGDALENA   ESPINOZA ESTEBAN,11934266
JR ANTONIO RAIMONDY 381       LI13,,DAVID   MARTINEZ LIZANA,11934636
AV NICOLAS DE PIEROLA 351       LI01,,UNIVERSIDAD NAC.,11934686
"JR FERNANDINI, JUAN PABLO STD.9A 656   - (MULTI MC",,JORGE FELIX   DELGADO TORRES,11936616
JR JORGE CHAVEZ 025       LI01,,ERIC MANOLO   CARDENAS REATEGUI,16725523
AV RODOLFO BELTRAN CDRA 9 STD.34     AS VIRGEN DE,,LIBERATO ROBERTO   JUSTINO ESCOBEDO,16725633
JR CAMILO CARRILLO PI.3 139 D     LI11,,COMUNIDAD AURIFE,16725653
JR JORGE CHAVEZ 035 208     LI05,,CARLOS MANUEL   JERI MORENO,16725663
AV  VENEZUELA 1438 101     LI05,,IG CRIS PENTECOS,16725853
JR INMACULADA PI.1 220   PJ 1 DE MAYO LI01,,EMILIA   GUERRERO ROJAS DE RAMIRE,16725903
AV GARCILAZO DE LA VEGA PI.2 1132 208     LI01,,ADAN MAXIMILIANO   CARRASCO PONCE,16726413
AV GRAL VIDAL PI.3 584   UR SAN LUIS GONZAGA LI05,,CARLA CHAVELLY   CHACON ROJAS,16727433
AV GRAL SANTA CRUZ PI.1 168 D     LI11,,ALEJANDRO HUMBER   LEON MENESES,16727503
- ENRIQUE MENGS CUADRA 4 MZ.A LT5     AH ACOMAYO L,,EDGAR   MARTINEZ ROQUE,16727513
AV GUILLERMO DANSEY PTO.A3 PI.1 918       LI01,,AGUSTIN BIVIANO   TORRES PAPUICO,16728153
CL ASCOPE BLOCK 7 552 505 UR LA COLONIAL LI01,,HILDA FLOR   CERCADO LOZANO,16728213
AV  BOLIVIA PI.3 148 3310 UR COMERCIAL CENTRO LIMA,,NERI FERNANDO   CASTILLO MATOS,16728253
JR NAZCA PI.1 353 2     LI11,,VIOLETA NELLY   COLLAZAOS REYES,16728463
CL GREGORIO PAREDES 307       LI01,,SILVIA MONICA   SALAZAR DE CASTILLO,16729643
AV GUILLERMO DANSEY 30 204     LI01,,MARIBEL   SALAZAR BLANCO,16729753
JR  ANGARAES PI.2 432 212 UR BARRIO UNION LI01,,MARIANO   RUIZ NORIEGA,16730023
JR RAMON DAGNINO 185 901 UR SANTA BEATRIZ LI01,,MARIA ELENA   APAZA ZUÑIGA,16730043
JR ANGARAES PI.2 462 212 UR BARRIO UNION,,MARIANO   RUIZ NORIEGA,16730093
#NAME?,,EDITH LUISA   PALOMINO QUISPE,16730653
"AV DE LA VEGA, GARCILAZO STD.13 172       LI01",,LB LABRITECH SAC,16730803
AV JOSE GALVEZ PI.3PISO 799A       LI13,,ELENA ENCARNACIO   PAREDES MENACHO DE VIGO,16730833
AV JUAN PABLO FERNANDINI 888 5     LI05,,JESUS   FALCON DREBEQUE,16730873
JR MANUEL ARELLANO 355   AH 1RO DE MAYO LI01,,JOSE RICHARD   ESPINOZA DE LA CRUZ,16730973
CL 6 AGOSTO 726       LI11,,HILDA MABEL EDEL   BANDA PERALES,16731083
AV SANTA CRUZ 326 5     LI11,,PAULA ARMIDA   CERVANTES GOMEZ,16731433
JR JOSE DIAZ 130 604 UR SANTA BEATRIZ LI01,,ELISA BERTHA   CANCINO ORDINOLA,16731623
JR PACASMAYO CDRA 2 LT 49-50 PABELL.1E     UR FERI,,KRIPTON PRODUCTI,16731713
AV GENERAL GARZON TORRE-A PI.7 613 704     LI11,,MARGOT ELIZABETH   CABANILLAS MARIN,16731833
JR MIGUEL BAQUERO PI.2DO 221 203     LI01,,VICTOR ELOY   RODRIGUEZ MENDOZA,16732153
JR OROYA. PI.2 165 202     LI01,,JUANA ELVA   DIAZ DE DESCALZI,16732263
"JR LUNA PIZARRO, FRANCISCO 585 C     LI13",,JUAN JOSE   PISFIL ORREGO,16732323
JR CHAMAYA PI.1 1028 107     LI05,,REAL FRIO E.I.R.,16732813
JR LARRABURE Y UNANUE. PI.7 299 702     LI11,,GERE SAC.,16732893
JR RUFINO TORRICO PI.4 889 405     LI01,,GOURMET PERUANO,16733193
AV GENERAL GARZON PI.7 1283 716     LI11,,LIZBETH IRAIDA   MORENO GARAY,16733533
AV GENERAL GARZON PI.3 1283 311     LI11,,LIZBETH IRAIDA   MORENO GARAY,16733553
CL PABLO BERMUDEZ 375       LI11,,ALFREDO   SANTA MARIA CALDERON,17726801
CL GENERAL VIDAL 1026 101     LI05,,FLOR DE MARIA BEGUNZA ROBLES,55936882
AV PACASMAYO PAB.A PTO.1 299   UR C.C NUEVO CENTRO,,ROQUE   FLORES CIRGO,55937672
AV ARGENTINA CDRA 8 INPAR PTO.45     AS NUEVA GENE,,VERASTIGUE NERI IANO,55940762
AV TINGO MARIA (ALT.) 791 104     LI05,,PABLO RICARDO   CORTEZ ESTASSIO,55959632
JR HUARAZ CDRA-20 BL.A PI.2   203 UR EDIFICIO RESI,,PEDRO PABLO   PALACIOS MOGOLLON,55959712
AV LUNA PIZARRO 125       LI13,,HIELO LA TRIDE FABRICA DE,55981452
CL GENERAL CANTERAC 440 401     LI11,,KATIA PAOLA   LEON CUISANO,55986722
AV ARNALDO MARQUEZ 1100       LI11,,DULIA   ROSAS CONTRERAS,55992142
CL GREGORIO PAREDES (GUZMAN BLANCO) 242 10     LI0,,EDUARDO EDGAR   AZORSA QUISPE,56040242
AV GENERAL GARZON PI.8 (HOS.DEL NIÑO) 613 804,,MARTHA ISABEL PEÑALOZA SERNA,56044312
AV ALFONSO UGARTE   INT 206-208 1064       LI05,,HIGGINIO HERCULA   CUEVA AGUIRRE,56068072
JR AGUARICO PI.3 (10 ARICA) 1185A   UR CHACRA COLO,,JULIO   HERNANDEZ MENDIZ,56099022
JR FRANCISCO DE ORELLANA 226 101     LI05,,GLICERIA AGRIPIN   CANALES FLORES,56102092
AV GENERAL GARZON 972 B     LI11,,LEONCIO   REYES GARCIA,56112672
JR JUAN PABLO FERNANDINI 938 172     LI05,,NILTON FRANCISCO   LLANOS JIMENEZ,56121682
JR ARNALDO MARQUEZ PI.4 (8 AV BRASIL) 887 23     L,,GINA PATRICIA PAZ HUAMAN,56129112
AV GARCILAZO DE LA VEGA PI.2DO 1260 6     LI01,,SARA SOFIA   MENDIVIL REA,56142572
AV GENERAL SANTA CRUZ 209       LI11,,ROLANDO GUILLERM ANGO ABIA,56164042
AV MARISCAL ORBEGOSO 437 100     LI05,,JAKELINE ELVIRA   ROCCA COLLANTES,56185012
AV  VENEZUELA PI.5 (.) 704 509     LI05,,JEM COMP PERU S.,56212472
JR RAMON CARCAMO 206       LI01,,GERMAN ANTONIO   MESTA CORI,56347192
JR RAMON CARCAMO MZ.B5 LT15         LI01,,ESTEBAN   SOTO QUINTANILLA,56350572
JR GENERAL CANTERAC (CDRA 9 AV BRASIL) 485 4C5 UR,,DECORACIONES VAL .I.R.L,56368662
JR HUARICOCHA PI.2 (JR HUAMACHUCO) 1353 203     LI,,YOLANDA   ZAVALA CASAUX,56415072
CL EMILIO FERNANDEZ PI.8 296 802 UR SANTA BEATRIZ,,ANDESTREK SAC,56436112
JR SANTA CRUZ . (ALT CDRA 10 GARZON) 167 12     LI,,GUILLERMO ANDRES LERTORA CANTERO,56473012
CL SANTA CRUZ PI.3 416 310-     LI11,,INES   SALAZAR ISMODES,56476582
CL MARISCAL LUZURIAGA 340       LI11,,BUSTAMANTE SOTO LUIS,56481712
AV JOSE GALVEZ (COS POLVOS AZULES) 235       LI13,,OSCAR   ESPINOZA JIMENEZ,56519482
AV ARENALES (ALT BINGO ARENALES) 395 506     LI01,,MARCO TULIO   PALMA CHAVEZ,56528872
CL MADRE DE DIOS (4 Y 5 DE PETIT) 255   UR SANTA B,,HONORINA CELINA YBAZETA VALDIVIESO,56542522
AV GENERAL GARZON 1283 315     LI11,,CARLOS   AMAYA ALVARADO,56547472
JR HORACIO URTEAGA STD.102 1453       LI11,,ELSA MARINA   MELENDEZ MELENDEZ DE ZAP,11908926
AV ARGENTINA TDA.B106 428   NN MESA REDONDA LI01,,NAZARIA   DIAZ GUILLEN,11922176
AV JOSE GALVEZ 566       LI13,,CARLOS MARTIN   GUTIERREZ ALVAN,16727113
AV GENERAL GARZON 1283 411     LI11,,CONSORCIO & CONS IRANDA RAMIREZ,55954022
JR AGUARICO PI.1 (ALT.12VENEZUELA) 470   UR CHACRA,,ISABEL MARGARIT DEL CARPIO ALVA,56038012
JR  AGUAYTIA PI.2DO 137   UR PROVEEDORES UNIDOS LI,,ANA   CUEVA GOMEZ,56385122
JR WASHINGTON PI.3 1338       LI01,,MASTERCARD PERU,11941686
JR NAPO PI.3 984 304     LI05,,RUBEN   SERRATTI MENDOZA,11941826
AV AREQUIPA PI.1 921       LI01,,LEDDY MIRIAM   PAREDES RIVERO DE MORAN,11942336
JR GARCIA NARANJO BL.55 PJE 23 STD.18 93   UR C.C.,,JUAN PABLO   CONTRERAS SALAZAR,11943186
AV GARCILAZO DE LA VEGA 1249 310 AS GALERIA COMPU-,,GRUPO ARVISA DEL,11945896
AV GARCILAZO DE LA VEGA PI.2 1249 205 AS GALERIA C,,GRUPO ARVISA DEL,11946336
AV RPCA.DOMINICANA 560       LI11,,HOU ZUN   ZHONG HOU ZUN,11946366
AV GARCILAZO DE LA VEGA PI.3 1249 317 AS GALERIA C,,GRUPO ARVISA DEL,11946446
#NAME?,,LISSET   ROJAS GALINDO,11950976
JR OTUSCO 704   PJ VILLA MARIA DEL PERPETUO LI01,,LICARION   TELLO GUERRERO,11951136
AV ALFONSO UGARTE 1000 A     LI05,,CONSORCIO DE TUR,11951206
AV REPUBLICA DOMINICANA PI.4 116 H     LI11,,ESPERANZA   DIAZ SIVIRICHI,11952846
AV ARGENTINA CDRA.4 (LADO PAR) PSJE.U     NN C.C.N,,EDITH PILAR   BARRIIENTOS ANAMPA,11953486
JR VARELA 809       LI05,,MARYLI AURORA   CASTRO ORBEGOZO,11954176
JR IQUIQUE PI.. 212 102 UR CHACRA COLORADA LI05,,KARINA LIZ   MEJIA BRIOSO,11955766
AV BOLIVIA (INT 337 1ER NIVEL) 148       LI01,,MARISOL   CASTRO ANGELES,11957386
CL MZ.B-1 FASE 1 LT.20   AH LAS LOMAS LI01,,LUIS PANFILO   PISFIL RELUZ,11959846
AV BAUZATE MEZA (EX BOLIVAR) 700         LI13,,GIOVAMMA   ROJAS GALLOSO,11959926
JR SANCHO DE RIVERA 1202 72   MCDO.UNION OCOMUSA L,,JAVIER   ORTIZ LEON,11960196
JR ARNALDO MARQUEZ TDA.3 1227       LI11,,ALEJANDRO FELIX   RODRIGUEZ JOYO,11960396
PQ HERNAN VELARDE 47A       LI01,,MARIA CONCEPCION   ALARCON BRAVO,11961436
AV GUILLERMO DANSEY 1247       LI01,,CENTUCOT S.A.C.,11961456
AV ARGENTINA CDRA.8 (IMPAR)   44 NN C.C.VIRGEN DE,,ROLY RIGOBERTO   JULCARIMA BARRERA,11963926
AV ARGENTINA CDRA.8 (IMPAR)   43 NN C.C.VIRGEN DE,,ROLY RIGOBERTO   JULCARIMA BARRERA,11963936
"CL DE ZELA, FRANCISCO CDR.1 PI.10 S.N       LI11",,SERVICIO NACIONA,11967136
JR CAÑETE 605-615         LI01,,RODOLFO ROBERTO   FERNANDEZ ARAUJO,11970336
JR POMABANBA 674 103     LI05,,LIDA CARMELA   VILLANUEVA PRINCIPE,11970766
"PJ DE ZELA, FRANCISCO (MIN AGR) 150   UR SANTA BEA",,MINISTERIO DE AG,11972086
JR GARCIA NARANJO BL.21 PJE 17 93 18 UR C.C.POLVOS,,PEDRO GUILLERMO   TUTIVEN ZAPATA,11972386
CL PACASMAYO PI.4 857       LI01,,ALVARO CHRISTIAN   FLORES GARCIA,11972806
AV MORALES DUAREZ CDRA 4 LT.31   AH JOSE GALVEZ B,,SINFOROZA   LLAMOZA SORIA,11972906
AV ARGENTINA PASAJE 5 215 W13 NN C.C.NICOLINI LI01,,VICENTE   SULLCARANI HUARACHA,11973016
AV ARGENTINA PASAJE 11 PAB.O PTO.6 215   NN C.C.NI,,ROSA   SIVIPAUCAR AYQUIPA,11973036
JR SAENZ PEÑA 469 5     LI13,,JORGE HEVER   VILCAYAURI CLEMENTE,16735333
JR HUASCARAN PI.3 781       LI13,,HENRY ESAU   ORTIZ GUILLERMO,16735433
AV MANCO CAPAC PI.4TO 439 406     LI13,,MAURA CLARA   CHUMPITAZ RIOS DE VERA,16735503
AV MORALES DUAREZ PI.2 667       LI01,,FERNANDO   PAREDES CORNELIO,16735533
JR MARISCAL LUZURIAGA PI.3 187 304B     LI11,,WALTER ANTENOR   VITERI RIVERA,16735543
AV MORALES DUAREZ PI.2 667       LI01,,FERNANDO   PAREDES CORNELIO,16735553
#NAME?,,MARIA VICTORIA   GRADOS BERROA,16735563
CL ASCOPE ESQ HUANCAVELICA PABELLON F     UR C.COM,,FREDY   ANCO ALDERETE,16735913
JR GARCIA NARANJO STAND K 17 040   UR C.C.SEÑOR DE,,JOSE   LUIS SALAS,16736183
JR TAYACAJA PI.2 372 107 NN MONSERRAT LI01,,IEDA GENOVEVA   CASTILLO LUZA,16736963
JR  BAHIA 260       LI21,,ZOILA ROSA   GUSUKUMA NAKASONE DE UTS,17327992
JR NAPO PI.2 1386   UR NUEVA AZCONA LI05,,TORIBIA ANA   TORRES CAÑAS,17328522
JR PEDRO DONOFRIO 207       LI05,,FIDOLINA   RUIZ CONEJO GAYTAN,17329432
JR JORGE CHAVEZ (SEC.0519 MZ.032) 274       LI05,,INDUSTRIAS ALIME AZCA SRL,56584632
JR JORGE CHAVEZ PI.2 (9 VENEZUELA) 333 204     LI0,,PEDRO   YLLIA CALDERON,56588792
AV VENEZUELA PI.4 (.) 704 414     LI05,,JUAN FEDERICO   ROBILLIARD PEHOVAZ,56599782
AV MANCO CAPAC PI.3 268 305     LI13,,LEANDRO LUIS TATAJE CHAVEZ,56600572
JR  HUARAZ PI.4 (ALT. 13 BRASIL) 2090 401B     LI2,,CARMEN ROSA   GALLO COSTILLA,56609462
"AV GARZON, GENERAL PI.7 685 702     LI11",,GLORIA DE LOS A ARAUCO PISCONTE,56627572
AV NICOLAS DE PIEROLA (S.0507 M.019) 227       LI0,,PATRICIA DEL ROS   ZAPATA ENRIQUEZ,56644892
AV ARAGENTINA 2004 1     LI01,,JOSE ANTONIO   RAMOS DASILVA,56649152
JR WIRACOCHA 1416 304     LI11,,SYLVIA         E   BAZAN REZKALAH,56651362
AV GARCILAZO DE LA VEGA 1249 157     LI01,,JC NET COMPUTER,56700002
AV A.UGARTE (MCDO.ATECONMP) CDRA1 STD1         LI0,,EDWIN   REGINALDO TICLLASUCA,11973876
AV ALFONSO UGARTE 651       LI01,,JORGE ANIBAL   CARRILLO RAMOS,11974896
"CL CARRION, ALCIDES 1586   UR 1 DE OCTUBRE LI01",,NORMA   GAMBOA LINARES,11975696
JR RAYMONDI 369 301     LI13,,JESUS SERGUIA   TOVAR DE SANTIANI,11977836
PJ PASAJE JUAN ALFARO 125   UR 1RO.DE MAYO - CERCA,,LOURDES ANA   GAONA REYNOSO,11979186
AV GARCILAZO DE LA VEGA 1261 243     LI01,,YLMER   GARCIA HUAMAN,11980096
JR PILCOMAYO STD.37 625       LI05,,JOSE ALFONSO   MEDINA BRIONES,11980596
AV SANCHO DE RIVERA STD.8 1202     MCDO.OCOMUSA LI,,ELVA   CASTILLO JIMENEZ DE VARG,11980736
AV GARCILAZO DE LA VEGA TDA.108 1261   UR GALERIA,,SANCHEZ ZEVALLOS DE CAR,11981176
AV GARCILASO DE LA VEGA 1168 317     LI01,,MERLIT   DEL AGUILA DEL AGUILA,11981506
JR JORGE CHAVEZ 459 C UR CHACRA COLORADA LI05,,ATILIO ALFREDO   PASACHE UCHUYA,11981686
JR MARISCAL ORBEGOZO PI.3 123 301     LI05,,MANUEL   RAMIREZ FARIAS,16737573
JR PASTAZA PI.2 756 A     LI05,,IVONE   MUÑOZ PAREDES,16737733
JR HORACIO URTEAGA PI.3 867 15     LI11,,JUAN MANUEL   YAURI ANTICONA,16737823
JR MISTI PI.4TO 133 404     LI13,,ANA MARIA   OSORIO ARAUJO,16737933
JR CORNELIO BORDA BLOCK A PI.3 252 304     LI01,,ADELA   FERNANDEZ VASQUEZ,16737953
CL  COLOMBIA 973 1 UR EL MILAGRO LI21,,VICTORIA   PEREZ MUÑANTE DE FLOR,17329992
JR MARISCAL LUZURIAGA 511 11 UR SAN FELIPE LI11,,JORGE LEONARDO   MENDEZ BRONCANO,56720182
CL ENRIQUE MEIGGS 221       LI29,,RITA HAZEL   VALDIVIA RANILLA,56734482
AV ALFONSO UGARTE 127       LI01,,MONTECRISTO EDIT,11982756
JR VARELA 809       LI05,,MARYLI AURORA   CASTRO ORBEGOZO,11983156
PL DOS DE MAYO 28 2     LI01,,LUIS ANTONIO   ALTAMIRANO HIDALGO,11984186
CL PARQ.LA PEDRERAMZ.8 LT13 60   PJ EL PLANETA LI0,,LIZ   OSORIO ORE,11984306
AV ALFONSO UGARTE SOT.58 204 1340 NN C.C UNICENTRO,,VICTOR   NOLBERTO RICRA,11985856
AV ALFONSO UGARTE 901 127     LI01,,MONTECRISTO EDIT,11986006
- P.DE LA REPUBLICA PJ.10 BLK 34 475 TD24 - C.C.PO,,MARISOL   BOLIVAR CCORA,11986526
AV GENERAL VARELA 2DO PISO 1736       LI05,,ANA BEATRIZ   CASARIEGO MENDOZA,12023286
PJ ANTONIO ELIZALDE PI.23 586       LI01,,GAUDENCIA GUADAL   PALLAROSO LOPEZ,11987136
AV UNIVERSITARIA CDR.47 PTO.68         LI01,,JUAN ESTEBAN   ABANTO OLORTEGUI,11987316
AV ARGENTINA PJ. BP PTO.3 215   UR C.C NICOLLINI L,,ANEL VICTORIA   AGUIRRE FLORES,16738283
AV BOLIVIA SECTOR D  3 ER NIVEL 148 3081 UR C.COM.,,ISABEL CRISTINA   ALCOCER PORTILLO,16738403
AV JUAN PABLO FERNANDINI PI.3 1052 3     LI05,,HECTOR GUSTAVO   GARCIA GALARZA,17331162
PJ ESPERANZA (.) 891       LI01,,GRIMANESA   OLIVEIRA YUMBATO,56753382
#NAME?,,CARLA VANESSA   CACERES ROJAS,56755702
AV ARGENTINA STAND 1683 CDRA 5 .   UR CC EL PROGRE,,AGUSTIN FRANCISC   SAAVEDRA GARCIA,56756582
CL ARNALDO MARQUEZ 1099       LI11,,VILMA NANCY   WILLIAMS TEJADA DE ALAVE,56765222
AV ARGENTINA  PABELLON Q PUESTO 12 575   UR C.COME,,EDGAR FABIO   MELGAR VASQUEZ,56778182
JR PABLO BERMUDEZ 180-A       LI01,,JAVIER GUSTAVO   ALIAGA HOYOS,11992296
JR GRAL VIDAL 342       LI05,,RUDIGUNDA   CASTILLO CUEVA DE SANCHE,11992736
JR ZORRITOS 473       LI05,,CORPORACION ANDI,11992966
AV MORALES DUAREZ MZ.A LT.1     AH JOSE GALVEZ LI0,,SANTOS FORTUNATO   SIERRA SAAVEDRA,11993486
CL ASCOPE PAB.W 393 TD1 NN CC.MALVINAS CENTER LI01,,MARTHA ELVIRA   TORRES DURAN,11994906
AV FRANCISCO LUNA PIZARRO 100       LI13,,MONER   BONIFACIO GRABIEL,11995066
AV ARGENTINA PAB.AU   11-1 UR C.C NICOLINI LI01,,DELIA GRACE   CIEZA ARANA,11995116
AV GARCILAZO DE LA VEGA STD.23 1272       LI01,,RONALD   TRUJILLO GARCIA,11996396
PQ SOCABAYA 980 8     LI05,,TERESITA HORTENC   GHERSI MORENO,11997496
JR CARCAMO 325 1A     LI01,,SOLEDAD IMELDA   GUARNIZO HUAMAN,11999326
AV GENERAL SANTA CRUZ PI.2 737       LI11,,JORGE LUIS   CUYUBAMBA REINOSO,12000926
PR HUANCAVELICA MZ.C LT.2     AH TRABAJADORES MUNI,,JIMMY DAVIS   VILLAFUERTE ANAYA,12001546
JR HUANCAVELICA MZ.B LT.21     AH TRABAJADORES MUN,,MANUELA MARIA   MEDINA LLONTOP,12001606
AV VICENTE MORALES DUAREZ 237 200 AH CONDE DE LA V,,SUSANA   CCAPACCA DE ONTON,12002336
JR HUANCAVELICA PTO.2 Y 3 1360       LI01,,GLADYS   HUAMANI GALIANO,12002756
AV VENEZUELA PI.1PISO 1537   UR CHACRA COLORADA LI,,RUBEN FERMIN   LLAULLE CAÑIHUA,16738773
JR ENTRE OTUZCO Y ETEN (ANTES 700) 188   UR V.MARI,,NORMA DORIS   ARCE CALDERON,16739073
JR PEDRO RUIZ PI.2 944 A     LI05,,LUISA GLADYS   CANESSA TELLO,17331382
"JR ORBEGOSO, MARISCAL PI.2PISO 868A   UR SAN LUIS",,HUGO GREGORIO   MEDINA BLANCO,17331392
CL GENERAL VIDAL 630       LI05,,OLGA MERANI UGAZ VERA,56801632
AV HORACIO URTIAGA 586 504     LI11,,EMER FLAVIO   FERNANDEZ TRUJILLO,56824612
PR ANTONIO RAYMONDI 746       LI13,,JORGE RICARDO   ARTADI NAVARRO,56839682
AV GARCILAZO DE LA VEGA 1288       LI01,,TERESA   GUSHIKEN DE MIYASHIRO,12006226
JR NAPO PI.3 984 304     LI05,,RUBEN   SERRATTI MENDOZA,12007876
JR FEDERICO SOTOMAYOR 347   PJ 1 DE MAYO LI01,,ALICIA   ALVARADO PANDURO,12010366
AV PASEO DE LA REPUBLICA CDR.9     NN (SALA DE COM,,TELEFONICA DEL P,12011016
AV PASEO DE LA REPUBLICA CDR.9     NN (SALA DE COM,,TELEFONICA DEL P,12011086
AV PASEO DE LA REPUBLICA CDR.9     NN (SALA DE COM,,TELEFONICA DEL P,12011146
JR CORNELIO BORDA 163 26     LI01,,LUZ MARIA   BENITES PACUTAY,12012136
AV GRAL SANTA CRUZ 250 501     LI11,,VILMA   BALDEON COLQUI,16739963
AV RAMON CARCAMO MZ.B2 LT2         LI01,,VICTORIA   ESPINO SALAZAR DE SANT,16740073
AV NICOLAS DE PIEROLA PI.2 186 205     LI01,,ZENAIDA URSULA   GIRALDO LOPEZ,16740133
CL FRANCISCO DE ZELA 926 8     LI11,,LUZ BARTOLA   VEGA CUENCA,17332512
AV MARIANO CORNEJO PI.2PISO 625       LI21,,LEDY ANDREA   FERNANDEZ ESCALANTE,56873262
JR CAMANA PI.6TO 1043 604     LI01,,GUIDO   DIAZ CARRION,56892202
AV GENERAL GARZON (ALT. 15 BRASIL) 1535 D     LI11,,FLOR DE MARIA   CARDOSO BAZALAR,56892462
PR ESPANA 700 730       LI01,,MINISTERIO DEL I,12015006
JR CARCAMO CDRA 4 PTO.11         LI01,,POLINARIO   SANCHEZ SILVESTRE,12015856
AV ARGENTINA PTO.1886 530   NN C.COMERCIAL EL PROG,,VICTOR MARTIN   SANTILLAN PEREZ,12016336
PJ B 131B   AH CONDE DE LA VEGA ALTA LI01,,JUAN CARLOS   ARIAS DURAND,12018246
AV ALFONZO UGARTE 1372 210     LI05,,JOSE JAVIER   SANCHEZ VALDIVIA,12018666
AV ARGENTINA CDR.3 PAB.A   TD22 NN C.C.EL PROGRESO,,NELVI YULISA   TIPISMANA GARCIA,12019386
"AV DE LA VEGA, GARCILAZO STD.2 1630       LI01",,DIAMIRE SOCIEDAD,12020996
AV ARNALDO MARQUEZ 1261 Q     LI11,,RUTH JUANA   BAUTISTA ASCENCIO,12022156
AV MANCO CAPAC 3.ER PISO 168 213     LI13,,ELVINA SARAI   GARCIA POZO,12022296
AV GARCILAZO DE LA VEGA PI.2 911 206     LI01,,LUIS ALBERTO   GONZALES RAMOS,16740803
JR GENERAL GARZON 1271       LI11,,JESSICA RUTH   RAMON ROMERO,16740833
CL GRAL BORGOÑA PI.1 422       LI21,,LUIS ALBERTO   CACHO FIGUEROA,17333852
AV MELLO FRANCO PI.2DO 468 A     LI11,,ELIZABETH AURORA   MORAN MENESES,56911902
JR ARNALDO MARQUEZ PI.3 887 11     LI11,,DEXTRE MANSILLA IME,56938772
JR  HUARAZ (ATL. 12 DE BRASIL) 2096 301     LI21,,MANUEL ANTONIO RODRIGUEZ DE SOU BLAS,56943452
AV GENERAL GARZON 1554 401     LI11,,MARIA TERESA BORJAS RODRIGUEZ,56949742
JR HUARAZ BL.A 2096 302     LI21,,COLOMBA GABRIELA     ALZAMORA,12024796
JR GARCIA NARANJO CL 6 BLK B 093 TD.2 - C.C.POLVOS,,EVELYN FABIOLA   SEGUIN GONZALES,12025356
JR ANTONIO RAYMONDI PI.7 730 DP7     LI13,,GREGORIA TERESA   MARTINEZ ZARATE,12027066
JR HUARAZ BL.A PI.5 2096 501 RS SAMSARA LI21,,MARIO DANIEL   SALAZAR BAZALAR,12027366
JR HUARAZ BL.A PI.4 2096 403A RS SAMSARA LI21,,RICHAR YOE   CASTILLO PLASENCIA,12027896
AV 28 DE JULIO LOCAL COM.CABINA 475   AS MERCADO M,,MIGUEL RICARDO   SALVADOR SILVESTRE,12032426
AV ENRIQUE MEIGGS 776       LI01,,RUTH ELSA   PACSI HUAMANI,16741653
AV PABLO FERNANDINI 1236       LI21,,IVET DUNIA   AGUILAR LIZARZABURU,17335072
AV ARGENTINA CDR.2 PAB.L TDA.5     NN C.C.NICOLINI,,TOMAS   ROJAS OBREGU,56962022
CL GENERAL ORBEGOZO 555       LI05,,JULIO CESAR   ORDINOLA QUEVEDO,56966752
- PI.6 (EDIFICIO SAN SARA) 2090 601B - PROLONGACIO,,MIGUEL ANGEL   VERME LOPEZ,56974132
JR HUIRACOCHA (ALT 5 DE HUSARES) 1455       LI11,,CHRISTIAN ALFREDO URIBE LIMA,57000742
JR GRAL VIDAL  DPTO 202 202       LI05,,JENY BERTILA   VEGA ESPINOZA,57018352
#NAME?,,MAGALY ROXANA   MILLA PEREZ,12034736
JR GARCIA NARANJO BL.16 PJ12 SOTAN.TD6 093   NN C.,,JOSE LUIS   NESTARES ALIAGA,12036086
AV ARGENTINA (PJ.G TDA.125) 428   NN CC.MESA REDON,,KARINA LIZ   BRAVO MEDRANO,12036956
AV ARGENTINA (PJ.G TDA.83) 428   NN CC.MESA REDOND,,RUBEN DARIO   GALINDO PERALTA,12037096
JR RECUAY DPTO-150 453   UR CHACRA COLORADA LI05,,JACQUELINE CLAUD   MIGRIETA SANDOVAL,12037276
AV LUNA PIZARRO  208         LI13,,HILDA YOLANDA   MAMANI HUALPA,12038486
JR GARCIA NARANJO TDA.14 093       LI13,,PAULO CESAR   OSORIO DELGADO,12237066
JR GARCIA NARANJO BL.55 PJE 23 STD.18 93       LI1,,JUAN PABLO   CONTRERAS SALAZAR,12402486
AV VICENTE MORALES DUAREZ 402 200 PJ 1 DE MAYO LI0,,NOEMI   ARNAO FARFAN,12402876
JR RAYMONDI PSJE A   11     LI13,,CECILIA LILIANA   CARDENAS SANTIVAÑEZ,16741873
JR CHANCAY. 922 2     LI01,,CREACIONES MARY,16742033
#NAME?,,MARIA VICTORIA   GRADOS BERROA,16742053
AV TINGOMARIA 1603 STD.9-10 1603   UR CC ASOC COM,,TERESA   HUAMANI PARIONA,17335352
"AV DE LA VEGA, GARCILAZO 1249-1251 PI.   345     L",,DOMAIN SYSTEM S.,57024772
AV GENERAL GARZON 1283 511     LI11,,GENARO   REYES GONZALES,57064482
CL JOHN NEPER 110 302 UR SAN BORJA SUR LI41,,VIRGINIA ELENA   LEON DE DE LA PUENTE,11905546
CL SCHARADER 175 102     LI41,,LUIS SERAPIO   TORRES LLAMOCCA,11906046
CL SCHARADER 175 101     LI41,,CARLA VANESSA   BARZOTTI MARTENS,11906116
CL L. SCHRADER 175 102     LI41,,CARLA VANESSA   BARZOTTI MARTENS,11907196
CL EDUARDO ORDOÑEZ 441 202C UR LAS MAGNOLIAS LI41,,DARWIN PIERE   MERCADO PACHECO,11907996
- ED.142 PI.2DO   202 UR VILLA NAVAL LI41,,LUIS   VERA TORRES,11909266
AV ANGAMOS ESTE ESQ.AV AVIACION         LI41,,MASTER LINK S.A.,11911086
AV PABLO CARRIQUIRRI PI.3 335   UR CORPAC LI27,,KALLPA PERU INTE,11911706
"JR LEONARD, VON (EX CALLE 39) PI.PI3 361 302 UR CO",,JORGE RICARDO   PEREZ ZOLLNER,11913766
AV TOMAS MARZANO (MZ.O LT.18) PI.1PIS 719   UR VIL,,EMILI SUSANA   FLORES FLORES,11915346
CL UNO OESTE PI.1 015   UR CORPAC LI27,,SOLID PRODUCTION,11916046
CL UNO OESTE PI.1 015   UR CORPAC LI27,,SOLID PRODUCTION,11916106
CL UNO OESTE PI.1 015   UR CORPAC LI27,,SOLID PRODUCTION,11916176
AV PRIMAVERA ESQ AVIACION CC.SAN BORJA         LI4,,MASTER LINK S.A.,11917946
CL UNO OESTE 015   UR CORPAC LI27,,SOLID PRODUCTION,11920416
AV MARSANO TOMAS STD.40 961   UR VILLA VICTORIA LI,,ELOY MARTIN   OCHOA VELASQUEZ,11920646
AV JAVIER PRADO ESTE PI.4 1166 402     LI27,,TAHOR PERUANA E.,11921476
CL FRANCISCO GRAÑA 638   UR SANTA CATALINA LI13,,NELLY ELIZABETH   PONCE SAMANAMUD,11921716
CL CLAUDE SAHUT PI.3 107 302 CH LAS TORRES DE LIMA,,ORLANDO MARTIN   VILLA ORTIZ,11925306
PJ SANTA ROSA MZ.C LT5A     AH SANTA ROSA LI41,,OSWALDO   CHUMBES SANTOS,11931486
PJ SIBELIUS DPTO.401 150       LI41,,HANS   VARGAS IBERICO,11934716
CL LOPEZ DE AYALA 1593 DPTO 101         LI41,,FERNANDO   FERRERO MERINO,11935676
CL ISAAC ALBENIZ 163   UR LAS MAGNOLIAS LI41,,LEONEL SERGIO   TEJADA ALMORA,11936286
AV MALACHOWSKY PI.2 230   CH LAS TORRES DE LIMATAM,,LILIANA PATRICIA   LIMO FLORES,11937206
CL PHILLIP VON LEONARD 345 302     LI41,,ORLANDO RUBEN   LAY MA,11938656
AV LAS ARTES SUR 640 303     LI41,,SOC MINERA AUSTR,11939206
AV VESALIO. MZ.U11 LT13     UR SAN BORJA SUR LI41,,GIANINA ROSA   TAPIA VIVAS,11950196
CL MIGUEL CERVELLI 133   UR SANTA CATALINA LI13,,JOSE FILIMON   MAYCA BEGAZO,11952166
CL FRANZ LISZT 121 202 UR SAN BORJA SUR LI41,,MARIANA   CORNEJO GIANCARDI,11952476
CL ALCIDES CARRION PI.1 203       LI41,,MONICA PATRICIA   GONZALES VERGARA,11954616
CL RICARDO ANGULO 895   RS CORPAC LI27,,CARGO MASTER S.A,11837456
AV TOMAS MARSANO 608   UR VILLA VICTORIA LI34,,JIMMY ALBERTO   REYES MARCOS,11837606
AV TOMAS MARSANO 810 17-1     LI34,,XINGUO S.A,11843226
CL 3(BLOCK 10- EDIFICIO 220) PI.1ER   101 UR VILLA,,JUAN JOSE   LOZADA CARDENAS,11846666
AV CANADA MZ.A1 LT17     AH SAN JUAN MASIAS LI41,,LUZ NELLY   CORONADO VEGA,11847676
"CL RANSEY, WILLIAM PI.3 188 A UR LA MERCED LI41",,SAUL GERMAN   MEDINA LLANTOY,11858146
CL LUIS MONTERO MZ 6 LT 25 124   CO TORRES DE LIMA,,JUAN ANTONIO GALINDO VEGA,11865576
AV GUARDIA CIVIL PI.2 1165       LI27,,LUIS FERNANDO   MAGOT BIELICH,11866066
AV TOMAS MARZANO 649   UR VILLA VICTORIA LI34,,GLADYS ADELA   MORALES LIPA,11870146
AV TOMAS MARZANO 720A       LI34,,NELSON   GUZMAN HUERTA,11870596
AL REDI ED.172 PI.3   301 CH VILLA NAVAL DE SAN BO,,CARLOS GROVER   GUERRERO MALPARTIDA,11871756
#NAME?,,VICTOR MANUEL   BALLESTEROS CORRALES,11871906
CL BUNSEN MZ.C LT8     UR PRIMAVERA LI41,,ISABEL ISIDORA   VELARDE LUZA,11872586
AV LAS ARTES SUR 640 303     LI41,,SOC MINERA AUSTR,11872596
PJ FRANCO ALFARO PI.4 150 401C     LI41,,JORGE WILLIAMS   VASQUEZ RABANAL,11875156
AV TOMAS MARZANO STD.215 971       LI34,,CARLOS ENRIQUE   ROMANI RAMOS,11880316
AV SAN BORJA SUR ( BLOCK N ) 1062 201 UR SAN BORJA,,ANA MARIA   ESCALANTE CABANILLAS,11880346
CL PASAJE SANTA ROSA MZ.B LT03     UR ASOC SANTA R,,DAGOBERTO   ELERA PORTOCARRERO,11880796
CL ALFA MZ.B LT41 PI.3ER   302 UR JUAN XXIII LI41,,DAVID JORGE EMIL   ZEVALLOS CASTRO,11881496
JR RUTHERFORD 283   UR PRIMAVERA LI41,,HECTOR   OJEDA CANO,11883626
"CL RONCALLA, VALMORE 309   UR CORPAC LI27",,METRO TELEKOM S.,11884246
CL 18 NORTE 213   UR CORPAC LI27,,MONICA PATRICIA   SELEM ALVARADO,11889056
CL ALEJANDRO PERALTA MZ.M LT9     UR VILLA VICTORI,,JORGE LUIS   ROJAS MERA,11890096
"CL GARCIA BALDOUIN, ARQUITECTO PI.4 132 402 CH LAS",,SANDRA MARITZA   RIVERA REYES,11893796
JR CARLOS VILLARAN 1050       LI13,,COMPANIA MOLINER,11894436
#NAME?,,BETSABE   LAFOSSE CARRION,11894606
CL CALLE 3 152 402 UR VILLA NAVAL SAN BORJA LI41,,HILDA ELENA   PORTURAS DOMINGUEZ,11897206
CL TRES 152 402 UR SAN BORJA SUR LI41,,HILDA ELENA   PORTURAS DOMINGUEZ,11897216
CL GOZZOLI SUR 497       LI41,,EDUARDO JAVIER   CALDERON VERASTEGUI,11897946
CL LAS ARTES CON VESAGLIO MZ.U-11 LT13   402 UR SA,,MARIA   FOUST,11899096
CL SAINT SAENZ 557       LI41,,AUDIOMAX S.A.C,11899426
CL MONGE PI.1 104 101 UR SAN BORJA SUR LI41,,BERNA SABINA   SANCHEZ MENDOZA,11902386
JR FRANZ SCHUBERT 382 G202 RS KORICANCHA LI41,,CESAR ALBERTO   SEMINARIO MESIA,11902426
JR LUIS ALDANA 375   UR SANTA CATALINA LI13,,ROMULO JESUS   ALBAN ALVAREZ,11902876
CL ZIGMA MZ.F LT58     UR JUAN XXIII LI41,,DILMA ANA TERESA   ORLANDINI BRUSH,11905276
AV EDUARDO ORDOÑEZ 321 401 RS LAS ARTES LI41,,BIHAR PERU S.A.C,11959216
#NAME?,,TERESA ANTONIA   REYNOSO AGUILAR,11960526
CL ISAAC ALBENIZ 272 104 UR LAS MAGNOLIAS LI41,,GUSTAVO ADOLFO   MU?OZ LARICO,11963136
AV SAN BORJA NORTE PI.4 1032 401 UR SAN BORJA NORT,,BETTY LOURDES   CHERO TARAZONA DE KUW,11967596
CL PEDRO MORELLI 109       LI41,,EMP GENERAC ENER,11968326
CL 39 213 202 UR CORPAC LI41,,MARIA CARLA   HERRERA VELARDE,11968556
CL 39 213 202 UR CORPAC LI41,,MARIA CARLA   HERRERA VELARDE,11968596
- MZ.C6 LT5 366 402 UR CORPAC LI27,,ROSMERY ESTEFANI   PANDURO CARPIO,11969166
CL PEDRO MORELLI 109       LI41,,EMP GENERAC ENER,11970866
PJ BARAJAS PI.2 556   UR SAN BORJA SUR LI41,,JAIME REYNALDO   MELGAREJO VICTORERO,11971676
CL RICARDO ANGULO 180  2PISO OFICINA D     RS CORP,,REVOCATA EDITH   GARCIA VILLANUEVA,16726233
#NAME?,,ROSA JULIANA   CANALES HUAMAN,16731103
AV LUIS ALDANA PI.2 195   UR SANTA CATALINA LI13,,MARIA OLGA   SAYAN ARGUELLES DE GO,16735053
CL CALLE 15 171   UR CORPAC LI27,,MARIA DEL PILAR   ALCEDO ZAMUDIO,17313062
AV ARQUITECTO EDUARDO ORDOÑEZ 387 106 UR LAS MAGNO,,ENRIQUE ALBERTO   OREZZOLI DE LOS RIOS,17719601
CL EMILIO HART PI.1 298   CH LAS TORRES DE LIMATAM,,LILI LUCIA   LARA PORRAS,17721031
CL RIVERA PI.2 144       LI41,,CAMILA   AREVALO AREVALO,17721451
"AV  PRADO, JAVIER ESTE PI.5 1570 502 UR CORPAC LI2",,ALINA PATRICIA   MARIN MORALES,17721781
CL SALVADOR ALLENDE MZ.U LT16     UR VILLA VICTORI,,JULIO HERNAN   LEBRUN ASPILLAGA,17722291
CL SALVADOR ALLENDE MZ.U LT16     UR VILLA VITORIA,,JULIO HERNAN   LEBRUN ASPILLAGA,17723081
PJ SANTA ROSA MZ.B LT2A     UR PRIMAVERA DE MONTER,,ANTONIETA   ROJAS DE CAPCHA,17723401
"AV CANAVAL Y MOREYRA,FRANCISCO 725 202     LI27",,HERNAN MAXIMILIA   LUCAR CUCULIZA,17723511
AV TOMAS MARSANO STD.9 810   UR VILLA VICTORIA LI3,,CARLOS ERNESTO   LLONTOP DIEZ,17723611
AV LAS ARTES NORTE 288       LI41,,CARMEN   RECHARTE UEMURA,17723641
CL UNO 745 306 UR CORPAC LI27,,BLANCA HORTENSIA   ESPINOZA SALAS,17723981
CL UNO 745 306 UR CORPAC LI27,,BLANCA HORTENSIA   ESPINOZA SALAS,17724001
AV SAN BORJA NORTE 440       LI41,,JAIME   MOLINA VELASQUEZ,17724411
#NAME?,,MARIELA   SANCHEZ GONZALES,17724821
AV JOSE GALVEZ BARRENECHEA 330   UR CORPAC LI27,,INTER AMERICAN I,17725311
AV JOSE GALVEZ BARRENECHEA 330   UR CORPAC LI27,,INTER AMERICAN I,17725321
AV TOMAS  MARZANO 961 5960 UR VILLA VICTORIA LI34,,CONAKLE S.A.C,17727111
AV TOMAS MARZANO STD.6364 961   UR VILLA VICTORIA,,LIZTH MARGOT   DE LA CRUZ VILLALTA,17727141
AV AVIACION PI.1 3057   UR SAN BORJA LI41,,MARIA GRACIELA   AGRAMONTE RONDOY,17727811
CL RICARDO ANGULO PI.2 180 A UR (ANEXO 12) TRAUMAT,,DOW S.A.,17729221
CL JORGE VALDEAVELLANO 226   UR SANTA CATALINA LI1,,ALBERTO   SEVILLA VERGARA,17729951
AV TOMAS MARZANO STD.56 961       LI34,,MILEVA   CHAVEZ GONZALES,17729981
CL BOSOVICH PI.3PISO (MISMO 4751685) 380 301     L,,YURI FABRICIO   MEJIA COPPO,55944922
CL LOS MILANOS (X COLG SAN AGUSTIN) 243   UR EL PA,,CARMEN   NAGAHAMA DE TSUKAZAN,55958562
CA CALLE 1 170       LI34,,ROYAL SUNALLIANC  FENIX,55982542
AV SAN LUIS CDR.24         LI41,,NELLY   AYSANOA CALIXTO,55983842
CL JORGE MUELLE (FR A METRO) 388 401 CH LAS TORRES,,JULIO CESAR   CORREA RIOS,55998232
CL JUAN BENITES PI.4 232 401     LI41,,JULIO JORGE SUMAR DENEUMOSTIER,56003602
AV  BOULEVARD (.) 974       LI41,,PEDRO SIGIFRED ZAPATA BARRIENTOS,56016492
CL SEIS (0649-021) 190   UR CORPAC LI27,,CESAR AUGUSTO   COTRINA TAVARA,56030822
CL 3 MZ.C LT15     UR SAN JUAN MASIAS LI41,,ESTHER   BERNARDO VICENTE DE SIMO,56037972
CL NUEVE 1070   UR CORPAC LI27,,ELBA GRACIELA   OLIVERA BAZAN,56066232
CL HIDALGO ROMERO 290       LI41,,AIT ARQUITECTURA,56131602
CL GOZZOLI NORTE PI.2 470   UR SAN BORJA SUR LI41,,ANA CECILIA SANGUINETI DIAZ,56147132
CL GEMINIS MZ.E LT17 (ESP.MUNIC.)     UR JUAN XXII,,DARIO JESUS   ALIAGA JIMENEZ,56147922
AV FRANCISCO CANAVLA Y MOREYRA 611       LI27,,GABRIELA FIORINI PERRET MARIA,56171382
CL CALLE 22 (ESP CDA 7 AV PRINCIPAL) 396       LI4,,MANUEL INOCENTE MORENO VARGAS,56173742
CL PIETRO MASCAGNI PI.4 156 402 UR LAS BEGONIAS,,OSCAR FRANSISC ALVARADO RODRIGUEZ,56176372
AV SAN BORJA NORTE (LI41 Y LAS ARTES) 408       LI,,CESAR AUGUSTO   SANCHEZ HUASIPOMA,56193992
CL ALEJANDRO PERLTA MZ.E LT09     UR VILLA VICTORI,,LUISA TEODULA   CASTILLO PALACIOS,56200582
CL OTTO MULLER 1ER PISO 228       LI41,,JORGE LUIS ARRIETA SEGURA,56201322
CL JOHANNES BRAHMS (TELEFONO 2241427) 161   UR MAR,,GUIDO MELQUIADES   TRUJILLO RADO,56209482
AV LAS ARTES MORTE PI.3 (25 AVIACION) 364 1     LI,,KARINA VERONICA MONTENEGRO WONG,56265652
CL GOZZOLI NORTE PI.2 644 201     LI41,,JOSE   UCEDA ALVAREZ,56266562
CL ENRIQUE GRANADOS PI.2 289       LI41,,KOMAX DE NEGOCIO,56294752
CL 1 OESTE 051-2 PI.3   301 UR CORPAC LI27,,MARCOS ANTONIO F   CALOGGERO BASURTO,56305532
CL UNO 340 301 UR CORPAC LI41,,EXBER   PLASENCIA SAAVEDRA,56312362
AV SAN BORJA NORTE 408       LI41,,MAYRA ISABEL   BEAS CAVA,56345322
PL LARCO HOYLE SUP MZ-G BLOCK 2 PI.3PI 193 305 UR,,MARCIA MARTHA   CARRION ALVARADO DE HOD,56349552
JR PABLO USANDIZAGA (TOYOTA AV PRIMAV) 519       L,,VERONICA SILVIA   HERRERA BRAVO,56363312
CL PHILIPP VON LEONARD(ANTES CALLE9) 385 102     L,,CLIFTON RICARDO CASAS CARMEN,56366252
CL PABLO USANDIZAGA (SC 0643 MZ 013) 595   UR LAS,,JANY YANKLIN   VALENCIA PEREZ,56371922
CL TREINTA Y NUEVE PTO.301 340   UR CORPAC LI41,,EXBER   PLASENCIA SAAVEDRA,56398902
AV TOMAS MARZANO STD.33 961   UR VILLA VICTORIA LI,,ROGER   MALDONADO CONDORI,56416152
AV JOSE GALVEZ BARNECHEA 546   UR CORPAC LI27,,DORIS AMALIA   ARMESTAR ROMERO,56428172
CL RUBENS PI.1PISO (21 AV SAN LUIS) 243 101     LI,,DANIEL U. RAMIREZ LUCENA,56440762
CL RICARDO ANGULO PI.2DO 180       LI27,,LILIANA MARIA   WONG LEE,56445562
CL JUAQUIN TURINA 171 C UR SAN BORJA SUR LI41,,TANIA CONSUELO   BARAK PASTOR,56450102
PJ DE LA ARQUEOLOGIA 110 201 CH LAS TORRES DE LIMA,,DANIEL   FERNANDEZ HINOSTROZA,56454062
CL DOS (CLINICA RICARDO PALMA) 232   UR CORPAC LI2,,GLORIA IRIS RIVERA VASQUEZ DE AREL,56488632
AV AVIACION (.) 2038       LI13,,ANCRO S.R.L.,56494922
"PJ SCHUMAN, R. PI.2 155 201 UR SAN BORJA LI41",,VICTORIA   ROJAS HERNANDEZ,56496592
- CL FRAY ANGELICO (CD22 AV S.LUIS) 443 101     LI,,ITALA SILVANNA PIAGGIO VALDEZ,56519582
- CL FRAY ANGELICO (CD22 AV.S.LUIS) 443 101     LI,,ITALA SILVANNA PIAGGIO VALDEZ,56519692
AV SAN BORJA NORTE (ESQ CON LAS ARTES) 408       L,,CESAR AUGUSTO   SANCHEZ HUASIPOMA,56533942
CL MAURIZIO CASSATI (CDRA 24 SAN LUIS) BL C 302,,JORGE FERNANDO   GOMEZ LAMLLEN,56563322
CL ROMERO HIDALGO PI.3 (27 SAN LUIS) 197 303 NN MI,,EDUARDO   AMADOR ACOSTA,56578152
CL 2 MZ.A LT3     AH LIMATAMBO NORTE LI30,,CARB CORPORACION SERVI Y NEGOCIO,56581412
AV AVIACION PI.2 (CDRA 35 AV AVIACION) A29   UR JU,,ELIZABETH NELLY   SALAS PONCE,56603962
AV BOULLEVARD (CRUCE AV SAN BORJA SUR) 1126,,KISHIMOTO VDA DE HIGA VICTORIA,56615572
PJ CAMINO BRENS 580 202 UR TORRE LIMATAMBO LI41,,MARIA ELENA   RIOS TRIGOSO,56620162
"CL DUMAS, ALEJANDRO MZ. P LT 13     UR VILLA VICTO",,FLOR DE ANGEL   RODRIGUEZ CAHUANA,56673052
AV LAS ARTES NORTE PI.3 (BANCO WIESSE) 364 101 UR,,JUAN JOSE PELLON TELLO,56673682
#NAME?,,MILAGROS   ARANGO ARANGO,11973206
CL JORGE MUELLE 125   CH LAS TORRES DE LIMATAMBO L,,KATY DEL MILAGRO   YAMUNEQUE HEREDIA,11973416
CL JOSE DIEZ CANSECO PI.3 119 307 UR TORRES SAN BO,,JAVIER ORLANDO   PASCO BARRIOS,11973466
CL UNO SOT.AREA DE RADIOLOGIA 140   UR SANTO TOMAS,,RADIOLOGICA S R,11975016
AV CANADA ESQUINA AV NICOLAS ARRIOLA S N       LI1,,MULTIOPTICAS PER,11976526
AV SAN BORJA NORTE PI.4 994       LI41,,MASTER LINK S.A.,11978466
CL JOSE GALVEZ BARRENECHEA 330   UR CORPAC LI27,,INTER AMERICAN I,17730871
CL JOSE GALVEZ BARRENECHEA 330   UR CORPAC LI27,,INTER AMERICAN I,17730881
CL ANDREA DEL SARTO (12 AV SAN LUIS) 212       LI4,,PATRICIA VERONIC   GRANDA CARDENAS,56718672
PL MARQUINA BL 16 PI.5 (METRO) 331 503 CH LAS TORR,,MELISSA CELINE   CHIRINOS TEJADA,56739262
PJ .CEFIRO PI.3PIS 141   UR TUPAC AMARU LI13,,CARMEN ROSA   MURO LUQUE DE VARGAS,11982506
#NAME?,,FERMINA NELLY   VARGAS SALAZAR,11988116
- SAN BORJA SUR PI.2 231       LI27,,ANDROMED -INST.D,11988946
PJ SANTA ROSA MZ.C LT5     AH SANTA ROSA LI41,,OSWALDO   CHUMBES SANTOS,11989776
CL ROSEAU EDIFICIO ACUARELA 630 102     LI41,,MARTHA PILAR   CANO PRADO DE COGORN,17731371
CL RODOLFO BELTRAN 152 B UR SANTA CATALINA LI13,,TOMAS ALEJANDRO   FERNANDEZ NAKURA,11991726
CL RICARDO ANGULO RAMIREZ (CALLE 1) 269   UR CORPA,,INS. SUP. TECN. RICARDO PALMA,11994186
JR PABLO USANDIZAGA 501 TD.1     LI41,,EDDY HUGO   ROMAN RAMIREZ,11997476
CL 32MZ.C6 LT5 366 402     LI27,,ROSMERY ESTEFANI   PANDURO CARPIO,11998556
AV DE LAS ARTES SUR(FRTE.MINIS.E.MINAS 246 400 UR,,GABRIELA CAROLIN   PACHAS MENDEZ,11999846
CL MAURICIO CASSATI CDRA.1 ED.D   401     LI41,,WOO   LEE JIN,12001256
AV BOULLEVARD 1168 402     LI41,,EMMA VICTORIA   CHEEL ROMAN,12001916
PJ BUNSEN MZ.B LT18     UR PRIMAVERA DE MONTERRICO,,NOEMI   SILVA BAZAN,12002596
CL ALEJANDRO ORTIZ MZ.J8 LT24 PI.1     UR SANTA CA,,ROSA ELENA   VALDIVIA MARTINEZ DE BLA,12002946
"CL DE FALLA, MANUEL PI.2 297       LI41",,LGS CONSULTORES,12003446
AV SAN BORJA NORTE 619 202     LI41,,ZOILA AURORA   TOVAR CANALES,17731751
"AV GALVEZ BARRENECHEA, JOSE PI.B 890 401 UR CORPAC",,BARRAL   CHRISTOPHE FREDERIC,17732261
CT VILLA NAVAL PI.2 142 202     LI27,,LUIS   VERA TORRES,17732621
"JR UTRILLO, MAURICE 261 201     LI41",,JUANA MERCEDES   RAMIREZ RODRIGUEZ,56814352
CL GOZZOLI NORTE (CDRA 32 AVIACION) 644 101 UR SAN,,SINECIA   FRANCIA DE ALFARO,56818022
AV PARQUE SUR PI.4PISO 524 401 UR CORPAC LI41,,JUAN   LADRON DE GUEVAR FIGUEROA,56825262
CL PABLO USANDIZAGA (0644-050) 315 201 UR LAS BEGO,,JOSE LUIS   BRICEÑO DELGADO,56854052
CL FRANZ SCHUBERT MZ.M16 LT17     UR SAN BORJA SUR,,MARIA CECILIA   YI MAN,12005326
AV BOULEVAR 986   UR SAN BORJA LI41,,JULIA   NAKANDAKARI KANASHIRO DE KU,12005536
PJ FRANCO ALFARO PI.4 150 401C UR LAS MAGNOLIAS LI,,JORGE WILLIAMS   VASQUEZ RABANAL,12007306
CL GOZZOLLI NORTE PI.2 225 202     LI41,,JOSE LUIS   BRICEÑO DELGADO,12011796
CL GOZZOLI NORTE 446       LI41,,JOSE ANGEL WIANN   PHANG CHIONG WHU,17732791
CL GOZZOLI NORTE 446       LI41,,JOSE ANGEL WIANN   PHANG CHIONG WHU,17732801
"AV PRADO (ESTE), JAVIER (X RPALMA) 1166 601     LI",,WASHINGTON DELME   CORNELIO FUSTER,56876562
"CL BARAJAS, ALBERTO PI.2DO. 312   UR SAN BORJA SUR",,HERNANDO   SANCHEZ ROBLEDO,56881082
PJ CRISTINA GALVEZ (O PACHECO) 351 401 UR TORRES D,,GUSTAVO EDSON RIOS SALINAS,56888982
CL LEONARDO DA VINCI PI.3PIS 368       LI41,,MARIA ISABEL   GOMEZ SANCHEZ,12014096
AV AVIACION PI.3 1606       LI30,,ADRIANA ISABEL   NORIEGA FERNANDEZ,12014596
CL S.N MZ.Z LT6 PI.2DO     UR VILLA LA VICTORIA LI,,DANTE ALFREDO   HUACACHI CENIZARIO,12015466
AV SAN BORJA NORTE 534       LI41,,FIDEL WILHEN   WENDORFF RODRIGUEZ,12016796
#NAME?,,MILAGROS   ARANGO ARANGO,12023516
AV NUEVA THOMAS MARSANO 961 239     LI34,,EDUARDO HUMBERTO   GALLO OTERO,17333732
CL EMILIO HARTH ED.47 170   CH LAS TORRES DE LIMAT,,NELSON OVER   SANCHEZ RIOS,17733821
AV FRAY LUIS DE LEON 455       LI41,,A / V INTEGRADOR,56945772
AV FRAY LUIS DE LEON 455       LI41,,A / V INTEGRADOR,56945932
CL ENRIQUE GRANADOS PI.5 134 501 UR SAN BORJA SUR,,ROSA ANGELICA   VALDERRAMA DE LIZARRAGA,12024906
#NAME?,,MARIELA   SANCHEZ GONZALES,12026746
"CL ANGULO, RICARDO AHORA CALLE 1 888   UR CORPAC L",,FERNANDO MARTIN   ARIZABAL LOAIZA,12026926
CL JUAN ROMERO HIDALGO 219       LI41,,SAMUEL ABRAHAM   NARRO VIGIL,12026956
AV SAN LUIS MZ.A LT6A     UR SAN BORJA LI41,,ANCRO S.R.L.,12030646
PJ DE LA ARQUEOLOGIA PI.2P 110 201 CH LAS TORRES D,,DANIEL   FERNANDEZ HINOSTROZA,12030766
AV SAN BORJA NORTE 619 102A     LI41,,ZOILA AURORA   TOVAR CANALES,17734901
CL LOS ALICIOS 259   UR SANTA CATALINA LI13,,LUISA ANGELICA VERNAZA VILLACIS,56990782
"AV MARSANO, TOMAS STD.44 961       LI34",,ROSA SUSANA   LOPEZ GUERRA,12035156
CL OTTO MULLER 164 401 - SAN BORJA SUR LI41,,GLADYS   VALDIVIA LINARES,12036806
AV TOMAS MARZANO STD.69 810       LI34,,AMELIA VIOLETA   RAMOS GONZALES,12038726
CL ALEJANDRO BUSSALLEN 171   UR SANTA CATALINA LI1,,INVERSIONES CALA,12039206
CL  TORRICELLI PI.2PIS 169   UR SAN BORJA SUR LI41,,GLORIA ISABEL CA   YAÑEZ VALENCIA,12039406
AV SAN BORJA NORTE PI.2 819   UR SAN BORJA LI41,,CARLA VERONICA   VIVANCO ROBLES,12039656
CL LAS LETRAS(PLZA.RICARDO PALMA) 118 315 RS LAS T,,OLIMPIA MARGARIT   AGUILAR MARROQUIN,12039926
CL LAS LETRAS(PZA.RICARDO PALMA) 118 315 RS LAS TO,,OLIMPIA MARGARIT   AGUILAR MARROQUIN,12040046
CL AMADEO VIVES 176 3PIS     LI41,,PATRICIA CARMEN   MARQUES HERRERA,12040276
AV FRAY LUIS DE LEON 747       LI41,,CALL CENTER S.A.,16742203
AV FRAY LUIS DE LEON 747       LI41,,CALL CENTER S.A.,16742233
AV FRAY LUIS DE LEON 747       LI41,,CALL CENTER S.A.,16742243
AV FRAY LUIS DE LEON 747       LI41,,CALL CENTER S.A.,16742253
AV FRAY LUIS DE LEON 747       LI41,,CALL CENTER S.A.,16742263
AV FRAY LUIS DE LEON 747       LI41,,CALL CENTER S.A.,16742283
AV FRAY LUIS DE LEON 747       LI41,,CALL CENTER S.A.,16742323
AV LAS ARTES SUR MZ.U11 LT13 PI.3ER   301     LI41,,NINFA LUZ   BARTUREN ROJAS,17735611
AV AURELIO MIROQUESADA 250 1601     LI27,,MARIA GABRIELA   GALVEZ TAPIA,11905516
CL MIGUEL DASSO PI.PISO7 153 7M     LI27,,OLGA MERCEDES   SANCHEZ FERNANDEZ DE LA,11905816
CL  LA HABANA PI.3 595 D     LI27,,SANDRA   ORTIZ DE ZEVALLO CASTILLO,11905846
AV JAVIER PRADO ESTE 181 4     LI27,,ISABEL RENEE   GAMBOA VERNAL,11909016
"CL CASANOVA, CORONEL DOMINGO PI.1ER 527       LI14",,REINALDO   CAMARENA MUÑOZ,11909056
"CL CASANOVA, CORONEL DOMINGO PI.1ER 527       LI14",,REINALDO   CAMARENA MUÑOZ,11909096
AV JAVIER PRADO OESTE 1315       LI27,,FRESH HARVEST PE,11910716
PJ INTEGRACION EDIFICIO 29A 198 402 UR DAMMERT MUE,,PAULITA ROSARIO   ROSADO RODRIGUEZ,11910826
CL PEREZ DE TUDELA 274 PI.4 282 8 UR CHACARILLA DE,,GIULIANA DORIS   DELLEPIANE CLARKE,11911116
AV JAVIER PRADO OESTE 1315       LI27,,FRESH HARVEST PE,11911216
AV TAMAYO PI.4 160   UR CHACARILLA DE SAN ISIDRO L,,PORTAL PERU S.A.,11911946
AV SANTO TORIBIO 290-298 PI.5   501     LI27,,BRICIO   TORRES,11913566
AV AUGUSTO TAMAYO PI.4 160       LI27,,PORTAL PERU S.A.,11913686
CL FRANCISCO LAZO 2455       LI14,,ROCIO DEL PILAR   REYES VIDAL,11915356
AV CANAVAL Y MOREIRA 480 1301     LI27,,SANDOVAL SA,11918336
AV REPUBLICA DE PANAMA PI.11 3055   UR EL PALOMAR,,SANDOVAL SA,11918616
CL FRANCISCO MASIAS PI.7MO 544       LI27,,MANUEL   BEHAR FRYDLEWSKI,11918706
CL FRANCISCO MASIAS PI.7MO 544       LI27,,MANUEL   BEHAR FRYDLEWSKI,11919236
"AV CANAVAL Y MOREYRA,FRANCISCO 480 1301     LI27",,SANDOVAL SA,11921026
"AV MIRO QUESADA, AURELIO PI.4 270       LI27",,DESPACHO PRESIDE,11924796
AV JORGE BASADRE PI.1 356   UR ORRANTIA LI27,,REBECA   RENGIFO SOTO,11925846
PL PLAZA DE LA COMPOSICION 102 401 RS DANMERT MUEL,,ANGELICA   TORRES LOPEZ,11927916
CL MARTIN DE PORRES 175 202     LI27,,RAUL ARTURO   CARNEIRO HUAMAN,11930886
CL LOS MIRTOS PI.4TO 223 46 UR SAN EUGENIO LI14,,GUSTAVO ADOLFO   DENICOLAY,11934816
PR PROLONGACION ARENALES 215 201     LI27,,JOSEFA   PAREDES VILLALOBOS,11936226
"AV CANAVAL Y MOREYRA, FRANCISCO PI.10 522       LI",,INVITA SEGUROS D,11939266
CL LAS CAMELIAS 491 401     LI27,,MAGGI & GUTIERRE,11941586
JR MARIANO D LOS SANTOS 111 (ENT 115)         LI27,,JIMENA ROXANA   LOZADA ZARAUZ,11943376
AV JUAN ANTONIO PEZET 105 1301     LI27,,CRISTIANO   OLIVEIRA SAMPAIO,11944946
CL LOS EUCALIPTOS HOTEL EL LIBERTADOR 550       LI,,AGREGADURIA MILI,11947406
AV MALECON DE LA MARINA 236-250   1002     LI18,,DIEGO   ZAVALA FLOREZ ESTRADA,11947946
"AV CANAVAL Y MOREYRA, FRANCISCO PI.10 522       LI",,INVITA SEGUROS D,11948136
AV CANAVAL Y MOREYRA 380       LI27,,LUZ DEL SUR S.A.,11954656
AV AMADOR MERINO REYNA PI.10 295       LI27,,CORPORACION GENE,11957466
JR FCO ALAYZA PAZ SOLDAN 1145       LI18,,BRIGHTSTAR PERU,11959666
AV PETIT THOUARS  2351         LI14,,INVERSIONES FAT,11960686
JR JOSE DE LA LA TORRE UGARTE 455         LI14,,INVERSIONES JO C,11961286
AV CAMINO REAL PI.2 208       LI27,,TELEFONICA MOVIL,11962056
CL DEAN VALDIVIA 275 P.3     LI27,,TELEFONICA GESTI  PERU SAC,11962126
CL LOS CISNES (DIRANDRO) 594       LI27,,POLICIA NACIONAL,11964226
"AV DE PANAMA, REPUBLICA 3531       LI27",,TELEFONICA EMPRE,11965226
AV MANUEL GONZALES OLAECHEA 459       LI27,,MIN. INT. PROYEC,11965486
AV FRANCISCO ALAYZA Y PAZ SOLDAN 1145       LI18,,BRIGHTSTAR PERU,11966396
CL MIGUEL DE CERVANTES 626       LI27,,INDUSTRIAL PUCAL,11968256
CL MIGUEL DE CERVANTES 626       LI27,,INDUSTRIAL PUCAL,11968266
AV LIZARDO ALZAMORA DPTO. 601 B 255       LI27,,TELEFONICA PUBLI  SAC,11970386
CL BURGOS BLOCK D 181 401     LI27,,CARLOS ELIAS   TAFUR TAFUR,11970686
AV CAMINO REAL PI.3 395   UR CHACARILLA DE SAN ISI,,JET PERU S.A.,11971886
AV CAMINO REAL PI.2 395       LI27,,JET PERU S.A.,11971916
AV CAMINO REAL PI.2 395       LI27,,JET PERU S.A.,11971936
AV CAMINO REAL PI.2 395       LI27,,JET PERU S.A.,11971946
AV CAMINO REAL PI.2 395       LI27,,JET PERU S.A.,11971956
AV CAMINO REAL PI.3 395       LI27,,JET PERU S.A.,11972186
AV CAMINO REAL PI.3 395       LI27,,JET PERU S.A.,11972206
AV DOS DE MAYO PI.2 1154 B     LI18,,ERIKA MARIA   SOBREVILLA LAZO,17324702
CL BARTOLOME HERRERA PI.4 291       LI18,,JEANNIE ANN   STIGLICH COVARRUBIAS,17724881
JR BLAS CERDEÑA 215 208     LI27,,LUIS FERNANDO   GOMEZ NOSSA,17725831
- AV DEL EJERCITO 925       LI18,,NORMA BARBARA   ALVARADO BIANCO,17726051
CL -JUAN DEL CARPIO 104 13     LI27,,KATETHERYNE   ESPTH DELGADO,17726141
CL CALLE LOS MANZANOS 457 801     LI27,,MICHA   HADAS,17726541
"JR MORAN, TRINIDAD 971A       LI14",,INMOBILIARIA ASE,17726561
CL TENIENTE ROMANET CAS.41     RS SANTA CRUZ LI27,,PATRICIA ANGELA   ALVAREZ BARANDIARAN,17727191
CL VIRREY TOLEDO PI.2PISO 372       LI27,,CARLOS ALBERTO   GONZALES BARZOTTI,17727351
AV GENERAL CORDOVA 648       LI18,,ROSARIO MULANOVI,17729091
CL DOMINGO CHOQUEHUANCA 471 4 UR SANTA CRUZ LI18,,ISABEL JULIANA   PUCHOC JORGE,17729501
CL LAS PALMERAS PI.1 1501   UR ORRANTIA LI27,,MONICA   QUISPE GARAVITO,17729591
AV PASEO DE LA REPUBLICA ED.EL SENADOR 3245,,TITO PASTOR BURGOS ACUÑA,56395072
CL LUIS PASTEUR (ESP.12 AV 2 DE MAYO) 1297       L,,JAIME   TAMAYO BARRIOS,56399242
CL JOSE DEL LLANO ZAPATA 331 404     LI18,,SONNIA   RIVERA DE VARGAS,56405782
CL ALFREDO SALAZAR 945 401     LI27,,LEILA   ACKERMAN GOLDSTEIN,56422472
CL JOSE DEL LLANO ZAPATA 316 604     LI18,,MARIA PASCUALA GUTIERREZ DE RIOS,56433182
AV NICOLAS DE RIVERA (ESQ AV FLORES) 885 402     L,,FELIPE   MORRIS GUERINONI,56446162
AV JAVIER PRADO OESTE 1358       LI27,,AGROINDUSTRIAS F,56448612
AV MIGUEL DASSO 126 305     LI27,,SERV.DE AGENCIAM,56465072
AV PETIT THOUARS (CDRA 26 AREQUIPA) 2651 C     LI0,,GIULIANO RENATO   NICOLINI ZEVALLOS,56465312
AV JAVIER PRADO OESTE 355       LI27,,DON QUIJOTE S.R.,56480092
AV CENTRAL (ALT.36 AV. PETTITHOARS) 189 A UR CHACA,,JOSE DAVID   NOBLECILLA ARNAIZ,56495732
CL CALLE LOS MANZANOS 453 702     LI27,,MICHA   HADAS,56515872
CL ALFREDO SALAZAR PI.2 472       LI27,,PARODI GUILLERM VAN OORDT,56517622
CL ALFREDO SALAZAR PI.2 472       LI27,,PARODI GUILLERM VAN OORDT,56517672
- AV. ANDRES ARAMBURU PI.3 166 3A - . LI18,,RAUL ALEJANDR CANTELLA SALAVERRY,56524672
CL FCO ALAYZA PAZ SOLDAN 145       LI18,,BRIGHTSTAR PERU,56528842
AV PRESCOTT CAS.113 239       LI27,,SAMANTHA PAOLA   CACERES SEVILLANO,56537162
"AV CAVENECIA, EMILIO PI.2DO 175 1 UR CHACARILLA DE",,PRG.SAC,56541382
"AV CAVENECIA, EMILIO PI.2DO 151 1 UR CHACARILLA DE",,PRG.SAC,56559672
CL LA REPUBLICA (7 CONQUISTADORES) 606 601     LI2,,IVY   SINCLAIR BATEMAN,56567092
CL VICTOR MAURTUA (4229945 DIREC INST) 382 202,,VICTOR GUILLERMO   ESPINOSA CASOS,56576782
AV JAVIER PRADO ESTE 539       LI27,,FERNANDO FREDERIC FERREIRA FERREIRA,56591642
"AV CAVENECIA, EMILIO PI.2DO 175 1 UR CHACARILLA DE",,PRG.SAC,56597972
CL LOS NEGOCIOS EDI. E-8   402B UR COND. JARDINEZ,,MONICA   HORNA CASTRO,56599082
AV F.PARDO Y ALIAGA (EDIF.CATU) PI.13 640       LI,,PARA EL COMERCIO INSTITUTO ITALIANO,56624372
AV F.PARDO Y ALIAGA (EDIF. CATU) PI.13 640       L,,PARA EL COMER INSTITUTO ITALIANO,56624392
AV F.PARDO Y ALIAGA (EDIF. CATU) PI.13 640       L,,INST.ITALIANO PA ERCIO EXTERIOR,56624412
AV F.PARDO Y ALIAGA (EDIF.CATU) PI.13 640       LI,,INST.ITALIANO PA ERCIO EXTERIOR,56624432
- AV. ANDRES BELAUNDE PI.3 166 3A     LI18,,RAUL ALEJANDR CANTELLA SALAVERRY,56646642
"JR GUISSE, ALMIRANTE (.) 2615 2     LI14",,PERU CAUCHO TECN,56647442
"CL ALZAMORA, LIZARDO OESTE 395       LI27",,BEATRIZ   DIBOS CAUVI,56673082
JR OLAVIDE. PI.4 282 401     LI27,,JULIO CESAR   HERRERA ESPINOZA,56674492
"AV CANAVAL Y MOREYRA, FRANCISCO PI.11 480       LI",,EQUANT PERU S.A.,11973196
CL ALFREDO SALAZAR CDR.3 S.N       LI27,,ASOCIACION BENEF,11973286
CL TRINIDAD MORAN 417       LI14,,CONECTA S.A.C.,11973506
CM REAL TOR.REAL PI.14 456       LI27,,AT&T GLOBAL NETW,11975336
AV REPUBLICA DE PANAMA PI.1 3165   UR EL PALOMAR L,,GOLDEN INVESTMEN,11976006
AV JUAN DE ARONA 400       LI27,,CALIFORNIA DOS M,11976466
AV EL EJERCITO 291       LI18,,NEXTEL DEL PERU,11978186
"AV PRADO (ESTE), JAVIER PI.2 489       LI27",,MARTHA GLADYS   MARTINEZ CORNEJO,11979066
CL AMADOR MERINO REYNA 295 201 UR JARDIN LI27,,TELEFONICA EMPRE,11980346
AV 2 DE MAYO PI.7 (ENTRE 1 PRESCOTT) 1502 B     LI,,AHORRO Y CREDIT COOP DE,56719882
AV REP. DE PANAMA Y CANAVAL Y MOREYRA     UR EDIF.,,CETCO S.A,56723772
AV STA CRUZ (ESQ AV AREQUIPA) 104 202     LI03,,ALFREDO   TAPIA GARCIA,56732662
"AV ALVAREZCALDERON ESQ.ULLOA,ALBERTO SN       LI27",,THE ASSOCIATED P,11982546
AV PASEO DE LA REPUBLICA PI.1 3800 A     LI27,,MARILU IRIS   GONZALES ACOSTA,11983206
AV ANGAMOS OESTE 1664 701     LI27,,CARLOS MANUEL   GIL DE MONTES MOLINARI,11983336
CL FRANCISCO TUDELA Y VARELA 102       LI27,,WIESE AETNA COMP,11988536
"AV PRESCOTT, GUILLERMO PI.2 214       LI27",,EDGARD MARTIN   ALBERTI MOROTE,11988796
AV PEZET DPTO. 1201 121       LI27,,TELEFONICA DEL P,11989056
CL LIZARDO ALZAMORA OESTE 385       LI27,,NESTOR JAVIER   CORROCHANO PATRON,17731401
CL BURGOS BL.C (15 AV.J.PRADO OESTE) 181 103 NN BL,,FERNANDO JERONIM   MAZULIS MARQUEZ,56784622
CL VIRREY ABASCAL PI.2 (CDA.2 J.PRADO) 264A,,JUDITH   PONCE ORTEGA,56786632
CL PABLO DE OLAVIDE 398       LI27,,VAN NOSTRAND DEL,11993166
AV JAVIER PRADO ESTE PI.2 330       LI27,,JUANA M.   PASCO RAMIREZ DE RUIZ,11993316
AV JAVIER PRADO ESTE PI.2DO 330       LI27,,FUNDACION CONSUE,11993646
AV PASEO DE LA REPUBLICA (CN.A.UGARTE) 3530   NN O,,LUIS ANTONIO   TORRES MARIUS,11993876
AV IGNACIO MERINO 2436       LI14,,OLINDA   ALEJANDRO SINCHE,11994556
AV JAVIER PRADO OESTE 1760 603     LI27,,ELENA FARIDE   ALIAGA NEYRA,11995706
JR FRANCISCO LAZO 2554       LI14,,ROGER DANIEL   CASTRO SOLANO,11995816
CL LAS GOLONDRINAS 193       LI27,,T & E DEL PERU S,11996376
AV DOS DE MAYO 1383   UR ORRANTIA LI27,,JORGE RICARDO   MITSUMASU HIRATSUKA,11996766
CL 32MZ.C6 LT5 366 402     LI27,,LUIS RUFFO   CARCAMO MIRANDA,11999636
CL LAS LILAS BL.G 400 101 AG SAN EUGENIO LI14,,KARINA   HUAPAYA MISPIRETA,12000636
CL LOS EUCALIPTOS DPTO 1305 PI.13 415       LI27,,JAVIER EDUARDO   HERRERA PAREDES,16738683
AV JORGE VANDERGHEN 120 102     LI18,,PEDRO PABLO   KUCZYNSKI GODARD,17731771
CL IGNACIO MERINO 379 2 UR SANTA CRUZ LI18,,ADOLFO   BRAVO RIOS,17732361
CL GARCIA CALDERON (FR.HUACA PULLANA) 338   UR AME,,SANDRA ELIZABET DICKSNON THORNBERRY,56814062
CM REAL (EMERGIA KARINA) 155 P.6 UR SAN ISIDRO LI2,,EMERGIA PERU S.A,56822702
AV RIVERA NAVARRETE PI.7 762       LI27,,CORPORACION PERU,56824792
AV RIVERA NAVARRETE PI.7 762       LI27,,CORPORACION PERU,56824822
AV RIVERA NAVARRETE PI.7 762       LI27,,CORPORACION PERU,56824892
- BL.T (.)   401 RS SANTA CRUZ LI27,,OSCAR ALFREDO   REYES MISPIRETA,56825072
CL LOS HALCONES (.) 228   UR JARDIN LI27,,SERVICIO EXPRESO,56832052
AV SANTA CRUZ (ESQ AV AREQUIPA) 104 202 UR CHACARI,,ALFREDO   TAPIA GARCIA,56854672
AV JAVIER PRADO OESTE (URB ALAMOS) 1081       LI27,,MINISTERIO DE DE,12005406
"AV CANAVAL Y MOREYRA, FRANCISCO PI.11 480       LI",,RIMAC INTERNACIO,12006856
CL ALFREDO SALAZAR 995 201     LI27,,GUILLERMO   GARRIDO LECCA FRIAS,12007006
CL LAS CAMELIAS 790       LI27,,MINERA YANACOCHA,12007096
CL CARLOS PORRAS OSORES 233 801     LI27,,MARIA ANTONIETA   SILVA ESCOBAR,12008596
CL MANUEL GONZALES OLAECHEA PI.2 337       LI27,,ESTUDIO GRANADOS,12008786
CL CONTRALMIRANTE VILLA 706 202     LI18,,WUILMER   MERINO HERRERA,12009796
AV PRESCOT 280   UR SAN ISIDRO LI27,,BOB MARTIN   FUENTES LOZA,12010966
JR MANUEL A. FUENTES 169       LI27,,CARLOS AUGUSTO   CHUECA WITTGRUBER,12012446
AV CAMINO REAL - EMERGIA PERU S.A.C. 155 P.6     L,,EMERGIA PERU S.A,12012756
AV CAMINO REAL - EMERGIA PERU S.A.C. 155 P.6     L,,EMERGIA PERU S.A,12012776
CL JOSE EUSEBIO DEL LLANO ZAPATA PI.7 389 701,,PATRICIA MARIA   AMAT Y LEON RODRIGUEZ,17732981
AV AUGUSTO PEREZ ARANIBAR PI.2DO 756       LI18,,ALEXANDRA MAGDAL   RAMIREZ MURGUIA,17733421
CL JUAN DEL CARPIO 104 13     LI27,,KATETHERYNE   ESPTH DELGADO,17733461
CL LOS JASMINES PI.1 (C.JAVIER PRADO) 168 E UR SAN,,CARLOS   LOSSIO TARRILLO,56861602
CM REAL (EMERGIA PERU S.A.C.) 155 P.6 UR SAN ISIDR,,EMERGIA PERU S.A,56867032
AV BASADRE -MULTICENTRO. TORRE AZUL 592 P.1     LI,,JEFATURA VALORES VILLANUE TELEFONICA DEL P GER.TESOR Y,56867952
AV JORGE BASADRE TORRE AZUL MULTICENTR 592 P.1 UR,,JEFATURA VALORES VILLANUE TELEFONICA DEL P GER.TESOR Y,56868192
CL JACINTO LARA PI.3 (PQUE. MORA) 440 304     LI27,,ALEJANDRA ANA DE   CUBA BAIOCCHI,56869042
AV CAMINO REAL SOTANO (OFICINA SOTANO) 155       L,,SERVICIOS EDITOR,56877082
AV CAMINO REAL (RUSSY ROMAN) 155 P.6     LI27,,TELEFONICA DEL P,56879922
CM REAL (RUSSY ROMAN) 155 P.6 UR SAN ISIDRO LI27,,JEF. SOP TECNIC JORGE MU TELEFONICA DEL P GERENCIA LARG,56881022
AV REPUBLICA DE PANAMA PI.4 3647       LI27,,PROMPEX,56894592
AV REPUBLICA DE PANAMA PI.4 3647       LI27,,PROMPEX,56894802
AV REPUBLICA DE PANAMA PI.4 3647       LI27,,PROMPEX,56895002
AV REPUBLICA DE PANAMA PI.4 3647       LI27,,PROMPEX,56895122
PQ LARCO DE DAMMERT 140       LI27,,JAIME ROBERTO   DASSO BOTTO,56895342
AV REPUBLICA DE PANAMA PI.4 3647       LI27,,PROMPEX,56895372
AV REPUBLICA DE PANAMA PI.4 3647       LI27,,PROMPEX,56895592
AV REPUBLICA DE PANAMA PI.4 3647       LI27,,PROMPEX COM PARA DE EXPORTACION,56895742
AV REPUBLICA DE PANAMA PI.4 3647       LI27,,PROMPEX,56895822
AV REPUBLICA DE PANAMA PI.4 3647       LI27,,PROMPEX,56895912
AV REPUBLICA DE PANAMA PI.4 3647       LI27,,PROMPEX,56896492
JR JOSE DE LA TORRE UGARTE 256       LI14,,ANA MARIA CONSUE   VARGAS ROSALES,12015206
AV PRESCOT 280   UR SAN ISIDRO LI27,,JENIM EIRL,12016256
CL MIGUEL SEMINARIO 320       LI27,,ORGANIZ INTERNAC,12016496
"CL SALAZAR, ALFREDO CDR.3 S-N       LI27",,ASOCIACION BENEF,12018856
AV DOS DE MAYO 1545 319     LI27,,RAUL   BERTO VILCAPOMA,12019056
CL CANAVAL MOREYRA PI.3 230 B     LI27,,JAVIER PEDRO   SANCHEZ FALLA,12020606
AV MANUEL GONZALES OLAECHEA PI.2 337       LI27,,ESTUDIO GRANADOS,12021656
CL MANCHAYPUITO 163       LI27,,CYNTHYA JUANITA   PINEDO GARCIA,17333572
AV EL ROSARIO (CD7 AV J.BASADRE) 150 701     LI27,,JOHN   CANNOCK ESPEJO,56911782
- AV EL ROSARIO (CD7 AV.J.BASADRE) 150 701     LI2,,JHON   CANNOCK ESPEJO,56911882
CL LISARDO ALZAMORA OESTE 385       LI27,,MARIA L CHOZA BALAREZO,56915562
JR GENERAL MENDIBURU 918   UR SANTA CRUZ LI18,,JULIA ROSA   GOICOCHEA SANCHEZ,56942512
PR ARENALES (CDRA41 AV AREQUIPA) 696   UR AMERICA,,PAOLA SARA SILVA JIMENEZ,56943432
AV REPUBLICA DE PANAMA PI.6 3545       LI27,,INFODUCTOS Y TEL,12026866
CL CORONEL ODRIOZOLA 126       LI27,,TE.SA.M. PERU S.,12030046
AV FRANCISCO ALAYZA PAZ SOLDAN 1145       LI18,,BRIGHTSTAR PERU,12032246
AV JORGE BASADRE 491 1103     LI27,,GOLDEN SOUL SAC,16741493
AV DOS DE MAYO PI.6 1450 601 UR SAN ISIDRO LI27,,CARLOTA MARIA FE   GRIJALBA DE GANOZA,17734311
AV REPUBLICA DE PANAMA PI.6 3531 601 UR EL PALOMAR,,ALEXIM PERU SRLT,17734651
CL JOSE MARIA EGUREN 145 3     LI18,,KARLA   SAAVEDRA CHOQUE,56974742
AV RIVERA NAVARRETE PI.7 762       LI27,,CORPORACION PERU,56989962
AV RIVERA NAVARRETE PI.7 762       LI27,,CORPORACION PERU,56990062
JR SINCHI ROCA (ESQ.LUIS PASTEUR) 2695       LI14,,HENRIQUE   RIBEIRO TORRES DE ALMEI,56991152
CL AUGUSTO TAMAYO PI.702 154       LI27,,Y NAVIERA MARKING AGENCIA MARITIMA,56994712
CL AUGUSTO TAMAYO PI.702 154       LI27,,AGENCIA MARITIMA,56994822
CL ALFREDO SALAZAR CDRA. 3 SN       LI27,,ASOCIACION BENEF,12034616
AV CANAVAL Y MOREYRA (ED. CHOCAVENTO) SN       LI2,,CETCO S.A.,12034716
CL AMADOR MERINO REYNA 289 901     LI27,,ROYAL & SUNALLIA,12037136
CA GONZALES OLAECHEA MANUEL 207       LI27,,AGENCIA EFE S.A.,12040306
AV JORGE BASADRE PI.4 1593 401     LI27,,SIMA   STRACHMAN DE NAPADENSCHI,17735101
CL DOS DE MAYO PI.6 1450 601     LI27,,CARLOTA MARIA FE   GRIJALBA DE GANOZA,17735371
CL LOS ROSALES (2216660) 460 7MO     LI27,,CORPORAC.FINANCI VERSIONES S.A.A,57019402
JR GUILLERMO MARCONI (23 SALAVERRY) 353       LI27,,JULIO   ALENCASTRE MORENO,57029162
AV CORONEL RECAVARREN BL.5 1300 102 UR RECAVARREN,,NILSIA   VALDIVIEZO REY,57029832
"AV BASADRE, JORGE TOR.B 489 1104 UR SAN ISIDRO LI2",,SHIRLEY   MUBARAK MUKARQUER,57032662
CL ANDALUCIA PI.2 275 201     LI18,,MANIFOLD SERVICE,57060072
"- SC.B MZ.X LT5     AH CARRION, DANIEL ALCIDES LI3",,ANTERO   PALOMINO FERNANDEZ,11926166
#NAME?,,MARCO ANTONIO   MARTINEZ JIMENEZ,11926196
JR ISOLINA SOTO PI.2 794 2 CO EL ROSARIO LI31,,RICHARD GODOFRED   CASTILLO GERONIMO,11926216
#NAME?,,BETTY ROSA   FLOR SILUPU,11926336
"- SC.B MZ.B1 LT9   201 AH CARRION, DANIEL ALCIDES",,ANY AURIA   LOPEZ SOBRINO,11926376
JR JUAN HEBIA 2920   UR CONDEVILLA SEÑOR ET.II LI3,,JESSICA GUADALUP   MARQUEZ CANALES,11863726
JR CHIMBORAZO N.2113 PI.3 2115   UR PERU ET.2 LI31,,MANUEL   GONZALES MONTES,11867116
JR MAX UHLE PI.2 2989A   UR CONDEVILLA LI31,,ALEX BENJAMIN   GARCIA LLERENA,11867836
JR PASCO PI.2DO 3073   UR PERU LI31,,JULIA BARTOLA   SALDAÑA ALVAREZ,11870236
JR AREQUIPA NRO 3302 ESQ.ANDAHUAYLAS PISO4 401 UR,,SILVANA   REATEGUI CAVERO,11871056
JR CALLAO 658   UR PERU LI31,,ANGELICA MAGNOLI   MALPARTIDA FLORES,11871136
PJ 45 MZ.T LT14A     AH LUIS ALBERTO SANCHEZ LI31,,VIVIANA   CAHUANA MOREANO,11871326
JR JOSE DE SUCRE 3517   UR CONDEVILLA LI31,,LIDIA RAQUEL   ARONI NOVA,11872696
CL SAN PAULO 2330 A UR PERU LI31,,LUIS ENRIQUE   MOTONARI ROQUE,11873226
CL EL CHACO PI.2 2387   UR PERU LI31,,JESSICA GIOVANNA   MONTOYA GONZALES,11873696
JR DIEZ CANSECO PI.2 3430   UR CONDEVILLA SEÑOR ET,,CHRISTIAN CASSIU   GARCIA PEREZ,11875066
CL CARLOS ROMERO 482   UR CONDEVILLA LI31,,FRANCISCO JAVIER   SALAZAR OCAMPO,11877876
JR VICTOR NAVARRO PI.2 317   AS EL ESTABLO LI31,,MARITZA   BERNUY OTINIANO,11879676
#NAME?,,MIRIAN ELIZABETH   TELLO JARAMILLO,11880046
#NAME?,,SILVIA   LAYZA AGUIRRE,11880226
JR HUANUCO PI.3 3825   UR PERU LI31,,YVAN ERDULFO   VIVAR VASQUEZ,11880656
JR LA FLORIDA 2829       LI31,,VIRGINIA PILAR   TRUJILLO ZEGARRA,11881486
CL MZ-K  LT-02     AH DANIEL ALCIDES CARRION LI31,,TERESA LUZ OCHOA LANCHO,11883246
JR CALLAO 831   UR PERU LI31,,GERALDINE HERMELIN YATACO PARRA,11883616
AV UNIVERSITARIA MZ.H1 LT12     AS JUAN VELASCO AL,,ABRAHAN JUSTO   SAMANEZ PONCE,11885036
AV VILLAVERDEMZ.J LT42 PI.2 317   AS SAN AMADEO DE,,TEOFILA VICTORIA   VIDAL TOLENTINO,11885156
AV JOSE GRANDA 3727   UR CONDEVILLA SEÑOR LI31,,AMPELIO   URBANO SANCHEZ,11885876
#NAME?,,JANETH   CABRERA HUALTIBANBA,11887036
JR TACNA PI.2 3639   UR PERU LI31,,JAIME ANGEL   CARDENAS RODRIGUEZ,11887156
"JR ALARCON, JULIANMZ.H1 LT19 900   AH EL ROSARIO L",,RUTH SATURNINA   CACERES MENDOZA,11887766
JR HUANCAVELICA PI.2 3147 202 UR PERU LI31,,CARMEN LUZ   CORTEGANA CARRASCO,11888166
AV PERU PTO.114 4298   - MCDO.3 DE ENERO LI31,,DELIA NELLY   QUILCARO JURADO,11888516
JR EMILIO DE LA BARRERA 265   UR CONDEVILLA LI31,,PABLO PEDRO   GAMARRA RIOS,11888706
AV LIMA PI.3 3490 C-2 UR PERU LI31,,URSULA VANESSA   URIBE DAVILA,11888786
"- MZ.Q LT6 PI.1   101 AH CARRION, DANIEL ALCIDES L",,OCTAVIO   JORGE CASTILLON,11889226
"- MZ.A1 LT16     AH CARRION, DANIEL ALCIDES LI31",,CARMEN MONICA   LERZONDE CORTEZ,11889256
"- MZ.Q LT10     AH CARRION, DANIEL ALCIDES LI31",,KATHIA MILUSKA   PALACIOS PARIMACHI,11889286
CL ESMERALDA  620 - 622   301 UR PERU LI31,,LIZ AIDA   CULQUICONDOR BARDALES,11889726
JR AREQUIPA 3297 1 UR PERU LI31,,MAGDALIT   SALDAÑA CORDOVA,11889806
AV LIMA      MZ. C LT. 10     UR PERU LI31,,JUANA LUZ   TRINIDAD ROSADIO DE SAMA,11890296
JR FILADELFIA 2383   UR PERU LI31,,JOSE   MOSQUERA CAMPOS,11891216
JR CUZCO 3692 A UR PERU ZN.5 LI31,,JESUSA   ONQUE VILCA,11894466
"CL AGUIRRE SOTO, A PI.3 3068   UR CONDEVILLA LI31",,CARMEN HERMINIA   CASTILLO CORONADO,11895576
#NAME?,,JOBITA   SANGAMA AYAMBO,11895726
JR CUZCO 3093 2 UR PERU,,PEDRO LUIS   FERNANDEZ PORTILLA,11896066
- MZ.Y LT11 PI.2   201 AH DANIEL ALCIDES CARRION L,,VICTOR HUGO   REAL MEJIA,11897086
"AV AGUIRRE UGARTE, GERMAN MZ.Z1A LT2     CO MALASP",,CLORINDA   BRAVO HERRERA,11897136
AV JOSE GRANDA 3933   UR CONDEVILLA LI31,,CARLOS ENRIQUE   CACERES ZAPATA,11899246
CL NICANOR ASIN 644 201 CO AMA KELLA ET.1 LI31,,URSULA   HUAIRA ROJAS,11901756
CL MICAELA BASTIDAS MZ.C LT1     AH 10 DE FEBRERO,,LOURDES ELENA   LOPEZ ESCRIBA,11901876
"- MZ.Y LT6     AH CARRION, DANIEL ALCIDES LI31",,CARLOS   CRUCES BENITES,11902036
AV JOSE GRANDA 2272   UR VALDIVIEZO LI31,,LUCILA JANETT SANTOS LOPEZ,11904766
JR CARLOS RAYGADA PI.2DO. 102   UR CONDEVILLA LI31,,PEDRO JOSE SANTO   SANZ ELGUERA,11905656
CL EDMUNDO ESCOMEL PI.2DO. 3185   UR CONDEVILLA LI,,JOSE LUIS   URQUIZA CHAVEZ,11906066
CL JOSE MARIA EGUREN MZ.K.7 LT39     UR CONDEVILLA,,CIRILA LUZMILA   VALENZUELA HUAMAN,11906126
#NAME?,,LIZARDO   VILLANUEVA MORENO,11906326
JR CARLOS RAYGADAMZ.M.4 LT21 PI.1 220   UR CONDEVI,,YOCONDA ISABEL   YACILA JIMENEZ,11906426
JR SAO PAULO 2425   UR PERU LI31,,DORALY   RENGIFO GATICA,11906846
CL APARICIO GOMEZ SANCHEZ 174   UR CONDEVILLA LI31,,CARLO CESAR   CARRASCO CASTILLO,11906896
"JR ALCIDES CARRION, DANIEL 210   UR CONDEVILLA LI3",,SONIA MARIBEL   SALAS DE ROMERO,11906986
- MZ H LT 6   1PIS AS VIRGEN DEL ROSARIO LI31,,YURI MEYK   FLORES AMEZ,11907506
JR FELIPE HERRERA 3820   UR CONDEVILLA DEL SEÑOR L,,CARMEN CECILIA   ARIAS CARDENAS,11907536
JR AUGUSTO AGUIRRE 3233 A UR CONDEVILLA LI31,,FELIX CARLOS   VALENCIA CLEQUE,11907566
JR JUAN LUIS HAGUE 3202   UR CONDEVILLA LI31,,CARMEN RICARDINA   ALVAREZ REYES VDA. DE F,11907976
JR HUANCAVELICA PI.1 3051   UR PERU LI31,,ALEJANDRINA   CRISPIN CRUZ,11909276
#NAME?,,ROXANA MARYLU   NAVARRO BARRON,11910516
"JR DE LA RIVA AGUERO, JOSE 3794   UR CONDEVILLA LI",,PEDRO PASCUAL   GALARZA MORENO,11910546
"JR DE LA RIVA AGUERO, JOSE 3766   UR CONDEVILLA LI",,EFRAIN VICTOR   TINTA COSCHO,11910576
#NAME?,,ENNY YULIANA   LLANTO RAMIREZ,11910606
JR SERGIO BERNALES 231   UR CONDEVILLA SEÑOR ET.I,,ADOLFO CRISTIAN   ENRIQUEZ CACERES,11911256
JR HUSARES DE JUNIN PI.2 343   UR CONDEVILLA SEÑOR,,ELIANA AMALIA   SANCHEZ DE LA CRUZ,11911976
JR ANDRES TORRES PAZ PI.1 323 A UR CONDEVILLA LI31,,JULIA   GUTIERREZ MARTINEZ,11912506
CL JOSE MARIA EGUREN MZ K7 LT39 UR CONDEVILLA SEÑO,,CIRILA LUZMILA   VALENZUELA HUAMAN,11913116
AV GRAL. SALAVERRY 100   UR PERU LI31,,EDUARDO   QUISPE PACHECO,11914216
AV PACASMAYO PI.3 3070 C UR CONEVILLA SEÑOR 1 ETAP,,DOMITILA VICTORI   PEREZ SOLORZANO,11915086
AV CANTA PI.2 244   UR CONDEVILLA SEÑOR ET.II LI31,,BRENDA RAQUEL   AGUAYO POLICIO,11915146
JR ALBERTO BARTHON MZ.E LT.29 PI.2 368   UR EL EST,,ROSARIO PILAR   CRISTOBAL SALAZAR,11915556
AV PERU ESQ.AV.QUILLA PTA.2 PTO. 415 4298   AS MER,,FERNANDO OSCAR   GRADOS ARTEAGA,11917786
- MZ.A-2 LT.18     CO AMA KELLA ET. II LI31,,YENNY CRISTINA   RUIZ HUANACO,11919116
JR JUAN LUIS HAGUE 3450   UR CONDEVILLA LI31,,OSWALDO   MALDONADO VILLAVICENCIO,11919856
JR ICA PI.3 3023   UR PERU LI31,,ERICK ALFONSO   JUAREZ MELGAR,11920946
JR JUAN SOLORZANO PI.2 4096   UR CONDEVILLA SEÑOR,,NOE RAVEL   ROJAS PIMENTEL,11921986
#NAME?,,EDINSON   FLORES QUESADA,11922046
JR PEDRO BERMUDEZ 345   UR CONDEVILLA SEÑOR ET.II,,BACILIO   GUTIERREZ AGUILAR,11924286
"- MZ.B1 LT14     AH CARRION, DANIEL ALCIDES LI31",,PEDRO PAULINO   GOMEZ HUAYHUAS,11924826
"- SC.B MZ.W LT12   201 AH CARRION, DANIEL ALCIDES",,MARIA MERCEDES   GUTIERREZ AMAPANQUI,11924926
"- SC.B MZ.N LT11     AH CARRION, DANIEL ALCIDES LI",,ISABEL   FRANCO SEVERINO,11925146
#NAME?,,MARCELINA PREMET   FERNANDEZ ASCONA,11925186
#NAME?,,JORGE ANGEL   OCHOA ACEVEDO,11925356
JR RIVA AGUERO 3789   UR CONDEVILLA LI31,,HENRY WILDER   MANCISIDOR GRIJALVA,11925386
JR FILADELFIA PI.1 2624   UR PERU LI31,,ALEXANDER JACKSO   MOLINA SALAZAR,11925396
#NAME?,,RODRIGO EFRAIN   SALAZAR LOPEZ,11925456
AV UNIVERSITARIA MZ.Y LT4A     AH DANIEL ALCIDES C,,SILVESTRE MELANI   MELENDEZ APARICIO,11925516
"- MZ.A2 LT17     CO VALLEJO, CESAR LI31",,RICKY DANALDO   ZARATE RENGIFO,11925526
JR CLEMENTE PALMA 446 B CO AMA KELLA ET. II LI31,,LIZ MIRAYAN   MEZA MARIN,11925566
CL ADOLFO JACOBO 1395 B CO AMA KELLA LI31,,LUZMILA MARGARIT   SANCHEZ CAMPOS,11925716
"- MZ.A2 LT20     AH VALLEJO, CESAR LI31",,YSABEL   FEIJOO MEDINA,11925786
#NAME?,,EDGARDO ORESTES   VILCARROMERO CHAVEZ,11925806
- MZ.A LT24   101 AS EL ESTABLO LI31,,KATY   VALIENTE VASQUEZ,11925936
JR LEONCIO PRADO PI.2 167 201 UR CONDEVILLA LI31,,ALEJANDRINA MART   GARCIA LOPEZ,11926016
- MZ.S LT13 PI.3   3 CO CESAR VALLEJO LI31,,JOSEFA CATALINA   LIÑAN TURRIATE DE PIN,11926486
#NAME?,,JORGE   MARTOS ABANTO,11926526
CL NICANOR ASIN MZ.M1 LT21     AS FAMILIAS UNIDAS,,LUIS ALBERTO   RAMOS MOLINA,11926626
CL 8 MZ.G LT34   A UR SAN PEDRO DE GARAGAY LI31,,JACOBO   SOIFER COSSIO,11926716
AV UNIVERSITARIA MZ.B1 LT3     AH DANIEL ALCIDES C,,ROMMEY ANTONIO   COTILLO MEDRANO,11926796
JR CHIMPU OCLLO 231A   UR VALDIVIEZO LI31,,ALFREDO JORGE   BOOTT LARROCHE,11926876
CL CARLOS RAYGADA PI.2 220 1 UR CONDEVILLA LI31,,YANY   CASANI ARONI,11926916
#NAME?,,MAXIMILIANO   SANCHEZ ATAUCUSI,11926966
AV UNIVERSITARIA PI.2 377   UR CONDEVILLA LI31,,CENTRO ODONTOLOG,11927536
"- MZ.N LT10     AH CARRION, DANIEL ALCIDES LI31",,ROSALINA   CAMPOS CANALES,11927616
JR FERNANDO TOLA 596 201 UR CONDEVILLA SEÑOR ET.II,,OSWALDO RAMON   HUAMAN YSUSQUI,11927696
AV UNIVERSITARIA CDR.8 PTO.7     UR MERCADO SANTA,,GREGORIO   NAVARRO HINOJOSA,11927776
#NAME?,,JULIA EREUNDINA   MOORE VALVERDE,11927886
- MZ.R LT10   201 AH DANIEL ALCIDES CARRION LI31,,ROMUALDO MONER   GOMEZ ALDANA,11928006
- MZ.R LT30   201 AH DANIEL ALCIDES CARRION LI31,,CARMEN ROSA   DAVILA FERNANDEZ,11928096
- MZ.F LT15 PI.2   201 UR SAN PEDRO DE GARAGAY LI3,,WILDA ESTHER   FLORIAN LEIVA,11928136
- MZ.I (REF 5686981) LT2   AH LUIS ALBERTO SANCHEZ,,JOSE ALBERTO   BUSTAMANTE HUARANCA,11928166
CL 7 MZ.N LT24     CO AMA KELLA ET. II LI31,,ROSA ADELA   CASTAÑEDA MORALES,11928206
#NAME?,,FREDY ASCENCIO   VEGA CUYUBAMBA,11928296
#NAME?,,LEONOR ELENA   SAN JULIAN RUIZ,11928336
#NAME?,,MARIA   VALERIO CHAVEZ,11928406
JR PEDRO BERMUDEZ 300   UR CONDEVILLA LI31,,BETTY CONSUELO   MANCO GUERRA,11928476
AV UNIVERSITARIA MZ.Y LT6     AH DANIEL ALCIDES CA,,CARLOS   CRUCES BENITES,11928506
"- MZ.W LT2     AH CARRION, DANIEL ALCIDES LI31",,MARIA JULIA   BONIFACIO TOLENTINO,11928556
- MZ.R LT1 PI.2   201 AH DANIEL ALCIDES CARRION LI,,OSMAR DANTE   CHIMOVEN SANTILLAN,11928826
#NAME?,,SARELA SOLEDAD   SIENFUEGOS SARMIENTO,11928876
CL 4 MZ.LL LT13 PI.1   101 CO AMA KELLA ET. II LI3,,ANGEL DICK   FREYRE SANCHEZ,11928956
#NAME?,,MARIA AMPARO   BAZAN URIARTE,11929036
JR NICANOR ASIN MZ.M1 LT22 PI.1   101 AS FAMILIAS,,ROBERTO CARLOS   ESPEJO VELA,11929186
AV CANTA PI.2 247   UR CONDEVILLA SEÑOR ET.II LI31,,BRENDA RAQUEL   AGUAYO POLICIO,11929536
JR ANCASH PI.1 3757   UR PERU LI31,,LAURENTINO EFRAI   FRANCO REYNAGA,11929716
AV LOS PROCERES 416   CO COVISEN LI31,,ROSA GAVINA   ACEVEDO SONCO,11929766
#NAME?,,MARIA DEL CARMEN   JIMENEZ PAJUELO,11929786
- MZ.T LT2 PI.2   201 CO CESAR VALLEJO LI31,,CARLOS ENRIQUE   BUSTIOS LEON,11929796
- MZ.A1 LT16   101 AH DANIEL ALCIDES CARRION LI31,,EDMUNDO MAXIMO   LERZONDE CORTEZ,11929866
PJ MANIZALES 2370   UR BARBONCITOS LI31,,LUIS NOLBERTO   SANTISTEBAN AGREDA,11931726
CL FERNANDO TOLA 596 201 UR CONDEVILLA SEÑOR ET.II,,OSWALDO RAMON   HUAMAN YSUSQUI,11931746
AV PERU (2424-2426)         LI31,,DE ZAMORA CATALINA VALDIVIA RODRIGUEZ,11933566
JR BENITO LAZO Q. 130   UR CONDEVILLA LI31,,FEDERICO   TASAYCO SOTELO,11933636
AV LIMA PI.2 3678A       LI31,,ZENAIDA FELICITA   PIZARRO FRIAS DE PARDO,11933646
JR SAN MARTIN PI.2 3865   UR PERU LI31,,VICTOR ALEXIS   BERROSPI MORALES,11934076
#NAME?,,ROCIO DEL PILAR   GOICOCHEA MAYTA,11938336
#NAME?,,DORIS MARTHA   PEREDO MEJIA,11938506
#NAME?,,RAFAEL   RIOS GOICOCHEA,11938706
#NAME?,,JULIO ALBERTO   SALAZAR AGUILAR,11939326
#NAME?,,DOLI ROCIO   CHIMOVEN SANTILLAN,11939376
#NAME?,,ROSA   CUSI TORRES,11940726
PJ CARTAGENA 2338   UR PERU LI31,,SAUL SEMEN   MENDOZA GUZMAN,11940866
#NAME?,,RAQUEL ROSSANA   ESTEBAN DAVILA,11941336
CL TOMAS COCHRANE PI.2 3527   UR CONDEVILLA SEÑOR,,SHIRLEY   CARY MELENDEZ,11941346
#NAME?,,EDITH JACQUELIN   CALDERON SOTO,11941426
- MZ.K LT6   201 AH DANIEL ALCIDES CARRION LI31,,MARGOT GLADIS   DURAN CHICLLA,11941546
JR VICTOR NAVARRO 317   AS EL ESTABLO LI31,,JOSE LUIS   VELEZ VERA,11941736
#NAME?,,ANTONIA   PALOMINO RAMIREZ,11941786
- JR ALBERTO HIDALGO 147   - VALDIVIEZO LI31,,TEODORA   MENDOZA EUSCATIGUE,11941806
"AV TUPAC, AMARU 139 A UR VALDIVIEZO LI31",,FERNANDO   BAEZ AQUISE,11942106
#NAME?,,ROSALINA   CAMPOS CANALES,11943196
JR VICTOR LLONA 3173 A UR CONDEVILLA LI31,,ROSA MARIA   GYZMAN NARVAEZ,11943536
- EX.(L ALBERTO SANCHES) MZ.M LT2   A AH DANIEL AL,,SANTOS CRECENCIO   RUITON HERRERA,11943546
- MZ.H1 LT2 PI.2   2 AS JUAN VELASCO ALVARADO LI31,,MARIO   VARILLAS HERRERA,11943616
#NAME?,,MARIELA GINA   UBALDO ACOSTA,11943636
#NAME?,,JUSCELINO   PINO ROMAN,11943656
#NAME?,,BERTA ANTONINA   CANALES LOAIZA,11943706
#NAME?,,RITA BEATRIZ   ESTEBAN DAVILA,11943736
- MZ.C1 LT10   201 AH DANIEL ALCIDES CARRION LI31,,GLORIA   QUISPE CABELLO,11943846
#NAME?,,NORMA   PARIASCA SALAS,11943956
AV UNIVERSITARIA MZ.Y LT6   101 AH DANIEL ALCIDES,,PASCUAL   UNCANCIAL CUMPA,11944446
JR ADOLFO JACOBOMZ.A LT7 1558 B CO AMA KELLA LI31,,MARIA MERCEDES   SERNAQUE SUYON,11944496
- MZ.O LT24   1 AH SEÑOR DE LOS MILAGROS LI31,,EDUARDO   URVINA TORRES,11944626
JR ISOLINA SOTO PI.2 793 202 CO AMA KELLA ET. II L,,GLADYS ESTHER   QUEZADA SAUCEDO,11944726
CL SAN PAULO 2241   UR PERU LI31,,GLADYS   CALLE POZO,11945216
- MZ.B2 LT7   202 CO AMA KELLA ET. II LI31,,ISABEL   ROJAS ALARCON,11946426
CL LOS QUINUALES MZ.O LT20 PI.3   A UR COVISEM LI3,,JOSEFA ELVIRA   PUPUCHE DE ESPINOZA,11947326
- MZ.C1 LT13   101 CO FAMILIAS UNIDAS LI31,,CARLOS JORGE   AMORETTI LUCAR,11947586
AV JOSE GRANDA 2352 200 UR CONDEVILLA LI31,,VICTOR MANUEL   GINOCCHIO TALLEDO,11948526
CL TRILCE MZ.A4 LT8 PI.2   2 CO CESAR VALLEJO LI31,,BENEDICTA   RODRIGUEZ CASTRO,11949126
CL ADOLFO JACOBO 1313 3 CO EL ROSARIO LI31,,ROSA BERTHA   MANTILLA QUISPE,11949146
- MZ.N LT30 PI.1   1 CO AMA KELLA ET. II LI31,,BARBARA   HUAMAN YAURI,11949196
JR AREQUIPA PI.2 3331       LI31,,FELIPA   MANRIQUE VEGA,11949756
#NAME?,,VICTOR SANTIAGO   ZULEN ZULEZ,11950316
JR PAROBAMBA. PI.1 721 1 UR NICOLAS DE PIEROLA LI3,,CARMEN JESUS   JAIMES TRUJILLO,11951356
CL RIO BRANCO PI.1 2440 2     LI31,,MARIA VICTORIA   CHAVESTA ALIAGA,11952416
- MZ.G LT32   201 UR SAN PEDRO DE GARAY LI31,,JUAN CARLOS   QUISPE CASTILLO,11952426
JR EL CHACO 2641   UR PERU LI31,,HILDA LAURA   TAMAYO FERNANDEZ,11953216
AV JOSE GRANDA 3727   UR CONDEVILLA SEÑOR LI31,,AMPELIO   URBANO SANCHEZ,11953346
CL DORA MAYER DE ZULEN 154   UR CONDEVILLA LI31,,AURORA   AYAMAMANI FOLLANO,11955106
JR CHACHAPOYAS 855   UR PERU LI31,,LUIS ALBERTO   HEYSEN CASTA?EDA,11955616
- MZ  Q LT 10     AH DANIEL ALCIDES CARRION LI31,,KATHIA MILUSKA   PALACIOS PARIMACHI,11956416
AV VILLAVERDEMZ.J LT42 PI.2 317   AS SAN AMADEO DE,,TEOFILO VICTORIA   VIDAL TOLENTINO,11957746
AV UNIVERSITARIA PI.2 702   AH EL ROSARIO LI31,,YDA   ARANQUEZ FONSECA,11958006
"JR NAVARRO, VICTOR 442       LI31",,IRIS JANETH   GALVEZ,11958306
JR FELIPE ARIAS 285   UR CONDEVILLA SEÑOR ET.I LI3,,JORGE ROLANDO   TORRES CHILET,11960096
JR MEZA MEDRANO 508   CO SAN GERMAN LI31,,KAREN JANET   GRANDA BAZAN,11960126
CL AUGUSTO AGUIRRE 3288   UR CONDEVILLA LI31,,AUGUSTO   DULANTO GOMEZ,11960266
CL SANTOS CHOCANO PI.3 507 3 UR SAN PEDRO DE GARAG,,ORLANDO VICTOR   CORNEJO TSUCHIYA,11961446
AV LOS PROCERES 171   UR CONDEVILLA LI31,,LUIS ENRIQUE   CRIOLLO MENDOZA,11961486
JR SANTOS CHOCANO PI.7 509 1 UR SAN PEDRO DE GARAG,,ROSA JESUS ELIAN   GIRIBALDI TOVAR,11962036
JR CUZCO 3692 A UR PERU ZN.5 LI31,,JESUSA   ONQUE VILCA,11962466
JR JOSE MARIA CORDOVA 3661B   UR CONDEVILLA SEÑOR,,MIGUEL ANTONIO   BRACO VELIZ,11963076
- MZ.V LT16 PI.3   3 AH DANIEL ALCIDES CARRION LI3,,JUANA JULIA   GALLEGOS ZARATE,11964766
CL 38 MZ.J LT13   101 AH DANIEL ALCIDES CARRION LI,,ROSA ELVIRA   BENITES FLORES,11965036
JR LEONCIO PRADO 748   UR AMAQUELLA ET.1 LI31,,ELENA ROSA   BALBOA ALVA,11965636
JR ADOLFO JACOBO PI.I 1444 1 CO AMA KELLA ET. II L,,JORGE CARLOS   LOAYZA ARRUELA,11965656
#NAME?,,CONSUELO ANA   PEÑA PINTO,11965926
JR GOMEZ SANCHEZ PI.3 335   UR CONDEVILLA LI31,,JOHNNY CHRISTIAN   LOZADA FLORES,11969276
- MZ.G LT2     AH 30 DE AGOSTO (4 DE ENERO) LI31,,NILTON CELSO   LUYA SINUIRI,16727633
JR OSCAR BARRENECHEA 134   UR CONDEVILLA LI31,,JUAN CARLOS   BERROSPI HUARACHA,16729793
JR PUNO PI.3 3640 B UR PERU LI31,,ELVIRA   GOMEZ OBREGON,16731153
JR RIO BRANCO PI.3 2392   UR PERU 2DA ZONA LI31,,OSCAR GABRIEL   ESPINOZA RAMOS,16731383
CL CALIFORNIA 928   CO LA UNION LI01,,JANET EVELYN   VARGAS CAMARENA,16731483
CL CALIFORNIA 928   AH LA UNION LI31,,JANET EVELYN   VARGAS CAMARENA,16731513
JR FLORA TRISTAN N 3219 N 3225 PI.2DO 3219   AS EL,,HUMBERTO   MALO MEDINA,16732673
JR CHACHAPOYAS 468 1 UR PERU LI31,,ISABEL TERESA   RUIZ ALVA,16732773
CA FILADELFIA PI.3 2937   UR PERU LI31,,SEGUNDO FELIX   CAMPOS GONZALES,16736003
JR MIGUEL ALJOVIN PI.3 161   UR CONDEVILLA LI31,,JESUS FRANCISCO   QUISPE TELLO,16736173
AV TOMAS VALLE 1157   UR SAN AMADEO GARAGAY LI31,,MILTON TEOFILO   HERRERA QUISPE,17314652
JR ISOLINA SOTO 627   AH EL ROSARIO LI31,,JUANA   AGUILAR MEJIA,17314712
JR SAO PAULO PI.1 2670   UR PERU LI31,,ADULIA KATY   YZAGUIRRE MURILLO,17315062
AV TOMAS VALLE 1157   UR SAN AMADEO GARAGAY LI31,,MILTON TEOFILO   HERRERA QUISPE,17315352
JR JULIO DELGADO PI.2 321 A CO SAN GERMAN,,RAFAEL NICOLAS   VARGAS DELGADO,17315382
JR CUZCO PI.2DO 3023   UR PERU LI31,,HUBERT GENARO   PALOMINO ALTAMIRANO,17315442
CL VICTOR LLONA 2960 3PIS UR CONDEVILLA LI31,,FERNANDA ELVIRA   ROMERO ZAPATA,17316222
CL VICTOR LLONA PI.3 2962 1 UR CONDEVILLA,,FERNANDA ELVIRA   ROMERO ZAPATA,17316242
CA FELIPE COHAILA PI.3 805   CO SAN GERMAN ET.2DA,,ALEJANDRO   MOGOLLON ALZAMORA,17317292
JR JOSE DE LA TORRE UGARTE PI.1 275   UR VALDIVIEZ,,CARMEN JACQUELIN   BRAUL QUISPE,17317492
JR CHICLAYO PI.1 145   UR PERU,,JOSE EMILIO   SUAREZ NIEVES,17317532
JR CUZCO 3371   UR PERU LI31,,ELENA PATRICIA   DOMINGUEZ LOPEZ,17317572
CL ALBERTO BARTON PI.1PIS 260   UR CONDEVILLA LI31,,ROSALINA LEONOR   SANCHEZ ABAN,17317672
CL ALBERTO BARTON 260   UR CONDEVILLA LI31,,ROSALINA LEONOR   SANCHEZ ABAN,17317722
MA MALECON RIMAC MZ-12A LT-3B     BA N.DE PIEROLA,,SANTIAGO   ALVAREZ FLORES,17317972
JR TERESA GONZALES DE FANING PI.4PIS 145A A UR VAL,,TRINIDAD   HUAMANI HUARCAYA DE HUA,17318002
MA MALECON RIMAC MZ-12A LT-3B     BA N.DE PIEROLA,,SANTIAGO   ALVAREZ FLORES,17318102
CL FELIPE COAHYLA PI.3 805   UR  SAN GERMAN LI31,,RICARDO ALAN   MOGOLLON SOLANO,17318132
JR BELLO HORIZONTE 2932 (OTRO 2934)     UR PERU LI,,CARMEN ROXANA   CARMONA PLASENCIA,17318612
AV LOS CONQUISTADORES PI.3 116   UR VALDIVIEZO,,JOHN PAUL   RODRIGUEZ BALAREZO,17318872
JR ISOLINA SOTO PI.2 644   UR ROSARIO,,POLO FERNANDO   PINEDO NUNAHUANCA,17318902
CL M.PEREZ DE TUDELA 338     UR CONDEVILLA 2DA ETA,,JUANA CARMEN   RONDAN TAMARIZ DE PACH,17320002
CL M.VARELA IIET PI.1 157   UP CONDEVILLA DEL SEÑO,,MARIA   MENDOZA HUISA,17320042
JR CARLOS CABRERA PI.2PIS 511 A AS SAN AMADEO DE G,,ALFREDO HERMES   ARCE ALARCO,17320332
AV LOS PROCERES PI.2PIS 151   UR CONDEVILLA LI31,,HAYDEE   FLORES MONTERO DE LUYO,17320512
JR MARIA PARADO DE BELLIDO 155   UR VALDIVIEZO LI3,,TERESA   ACUÑA VIOLETA,17320812
JR LA FLORIDA PI.2PIS 2826   UR PERU LI31,,SEGUNDO ERASMO   GONZALES SARMIENTO,17321442
JR LUIS HAGUE PI.3 3066   UR CONDEVILLA 1 ETP LI31,,BERTILA   CARPIO UZURIAGA,17321702
AV LIMA 3217-3219 PI.1PIS 3219   UR PERU LI31,,LUIS HUGO   RAMOS OSORES,17321752
#NAME?,,ROBERTO CARLOS   LOZANO FERNANDEZ,17322092
CL 18 MZ.G LT44 PI.2     CO SIMA LI31,,VICTOR GENARO   PALOMINO ALTAMIRANO,17322142
JR AREQUIPA PI.2DOP 3016   UR PERU LI31,,BLANCA VICTORIA   BRAVO CHUNGA,17322232
JR ALFONSO BERNAL PI.1 298   UR SAN GERMAN LI31,,GIOVANNA PILAR   OLORTIGUE HUERTA,17322482
JR VENTURA PI.2 932   UR SAN GERMAN LI31,,NADIA   FRANCO VARGAS,17322562
JR SAO PAULO 2845   UR PERU LI31,,MARIA JULIA   MARTINEZ ESPINOZA,17322752
CL GUILLERMO ZUÑIGA 971 (MZ-G LT-13)     UR EL ROS,,RITA SUSAN   ROSALES GARCIA,17323032
JR ICA 3665     UR PERU LI31,,MARGARITA R   UNOCC LOPEZ,17323222
JR JOSE GALVEZ PI.2PIS 109   UR CONDEVILLA LI31,,JORGE   RODAS DAMACEN,17323272
JR CARLOS CABRERA PI.2 884   UR SAN GERMAN II ETAP,,TANIA MERCEDES   GALVEZ SOLANO,17323482
#NAME?,,LUZ HERMELINDA   CHEMPEN ALVAREZ,17323512
JR LOS EUCALIPTOS MZ-R1 LT-1A     CO MALASPINA BRY,,ROSA IDA   BAZAN QUINTANA,17323802
CL BELEN PTO.201 PI.2 352   UR PERU LI31,,EDINSON   DAVILA MOZOMBITE,17323922
JR BENITO LAZO QUIJANO IIET 198   UR CONDEVILLA SE,,JONATHAN ROBERTO   MONCADA GARCIA,17324312
AV JOSE GRANDA PI.2 3636 A UR CONDEVILLA,,NICANOR CARLOS   TUMBALOBOS ORELLANA,17324822
JR FELIPE COHAILA PI.3 805   UR SAN GERMAN 2 ET LI,,ALEJANDRO   MOGOLLON ALZAMORA,17325292
JR PUERTO BARRIOS 650     UR PERU LI31,,HILDA CLORINDA   VIVANCO BERROCAL,17326202
JR LEONCIO PRADO PI.1 748   CO AMA KELLA LI31,,ELENA ROSA   BALBOA ALVA,17326552
JR LEONCIO PRADO 748   CO AMA KELLA LI31,,ELENA ROSA   BALBOA ALVA,17326582
JR AGUSTIN GAMARRA (MZ-M LT-9) PI.3 3442   AH 10 D,,RULY RENDO   GARCIA TAYPE,17327232
AV PACASMAYO PI.2PIS 3524   UR CONDEVILLA SEÑOR ET,,ALFREDO VIDAL   OLIVO CANDIOTE,17328132
#NAME?,,MARIA PASCUALA   ZELADA ROJAS,17328202
#NAME?,,NELLY EMMA   CARDENAS ALARCO,17328772
AV UNIVERSITARIA PI.1 774   UR VIRGEN DEL ROSARIO,,ZACARIAS RAYMUND   LEON TORRE,17721511
#NAME?,,ALFREDO   PONCE PAREJA,17721611
CL TOMAS A COCHRANE 3593       LI31,,ROSA LUZ   AGUILAR BLAS,17722711
CL MEZA MEDRANO 508   CO SAN GERMAN ET.I LI31,,KAREN JANET   GRANDA BAZAN,17723491
CL RIO BRANCO PI.1P 2567       LI31,,NELIDA   VENTURA LARRAIN,17724541
JR GOMEZ SANCHEZ PI.3 335   UR CONDEVILLA LI31,,JOHNNY CHRISTIAN   LOZADA FLORES,17725481
JR MARACAIBO PI.2 2375   UR PERU LI31,,ELOISA   CASIQUE ROJAS,17729611
CL ASOCIA.VIV.3.OCTU MZ.A LT17         LI31,,MONICA DEL MILAG   BARRETO MORALES,17729671
PJ LOS ANGELES 471 201 UR CONDEVILLA LI31,,ERNESTO TOMAS   CHANG RAMOS,17729871
JR LIBERTAD PI.1 (.) 3982       LI31,,KARINA   MONTESINOS OLIVARES,56210372
JR DANIEL ALCIDES CARRION PI.2PSO 204   UR CONDEVI,,MARIA CARMELA BARRIENTOS CABEZAS,56215012
JR ICA PTO.2DO PI.2 3122   UR PERU LI31,,OSCAR HERMINIO   VADILLO MONDARGO,56294492
JR AMAZONAS PI.2 (5689746) 3527 2 UR PERU LI31,,ESTELA   LOPEZ MORALES,56330412
CL MELCHOR CUMPA MZ.L LT33     CO CIMA LI31,,MERCEDES   DURAND SABROSO,56411582
CL LAS ORQUIDEAS MZ.A LT12 PI.1     UR VALDIVEZO L,,EGO EIMI JO DIDO,56474972
AV JOSE GRANDA PI.1 3519   UR CONDEVILLA SEÑOR ET.,,JOSE WILBER RAMIREZ NEYRA,56562952
JR TORRE TAGLE PI.2 3841 201 UR CONDEVILLA,,GENNE GERARDO   HINSBI RAMIREZ,56568172
JR EUSEBIO GALVEZ MZ.C LT1 PI.2PSI     AS JUAN VEL,,NICANOR   SULCA QUISPE,56582682
JR ALFONSO SOTO MARTINEZ 500   UR SAN GERMAN 1ERA,,ROSA MAXIMINA   VASQUEZ CHIRITO,56588642
JR PASCO PI.3 (32 AV PERU) 3269 301 UR PERU LI31,,AKEMI MARITZA   LUJAN CHAVEZ,56611372
JR CONSTANTINO CACERES PI.2 272 201 UR AMADEO DE G,,MARIA ISABEL   BAEZA MARTINEZ,56648752
CL EUSEBIO GALVEZ PI.4PIS 268   CO SAN GERMAN LI31,,TEOFILO ANDRES   CARRANZA SORIA,56662942
#NAME?,,MARTIN   MELGAR ANDIA,56709372
"AV VALLE, TOMAS MZ.A LT10     CO LA UNION LI31",,GLENY DORA   ORTEGA PADILLA,11973516
JR ENRIQUE ARNAEZ MZ.V LT11     CO AMA KELLA LI31,,PAZ AIDE   FLORES MEJIA,11974456
"- MZ.U LT22 PI.2   201 CO VALLEJO, CESAR LI31",,JESUS RAMOS   BADA CUEVA,11974966
JR MARIANO I.PRADO PI.2 3349   UR CONDEVILLA LI31,,YSABEL SARA   CUBILLAS SARMIENTO,11975106
