CL MONTE UMBROSO 250	-12.113384242424,-76.980724676273
CL MONTE UMBROSO 520	-12.116179836735,-76.981985857143
CL MONTE UMBROSO 520	-12.116179836735,-76.981985857143
CL MONTE UMBROSO 520	-12.116179836735,-76.981985857143
CL MONTE UMBROSO 520	-12.116179836735,-76.981985857143
CL MONTE UMBROSO 520	-12.116179836735,-76.981985857143
CL MONTE UMBROSO 520	-12.116179836735,-76.981985857143
CL MONTE UMBROSO 520	-12.116179836735,-76.981985857143
CL MONTE UMBROSO 520	-12.116179836735,-76.981985857143
CL MONTE UMBROSO 520	-12.116179836735,-76.981985857143
CL MONTE UMBROSO 520	-12.116179836735,-76.981985857143
CL MONTE UMBROSO 520	-12.116179836735,-76.981985857143
CL MONTE UMBROSO 520	-12.116179836735,-76.981985857143
CL MONTE UMBROSO 520	-12.116179836735,-76.981985857143
CL MONTE UMBROSO 520	-12.116179836735,-76.981985857143
CL MONTE UMBROSO 520	-12.116179836735,-76.981985857143
CL MONTE UMBROSO 520	-12.116179836735,-76.981985857143
AV ANGAMOS 1100	-12.113584,-77.040506
CL MONTE UMBROSO 415	-12.114911964678,-76.981283847458
AV. ANGAMOS 1110	-12.113530767677,-77.040559636364
CL MONTE FLOR 587	-12.113298958904,-76.983217479452
CL MONTE FLOR 587	-12.113298958904,-76.983217479452
CL MONTE FLOR 587	-12.113298958904,-76.983217479452
CL MONTE FLOR 587	-12.113298958904,-76.983217479452
CL MONTE UMBROSO 520	-12.116179836735,-76.981985857143
CL MONTE UMBROSO 520	-12.116179836735,-76.981985857143
CL MONTE UMBROSO 520	-12.116179836735,-76.981985857143
CL MONTE UMBROSO 520	-12.116179836735,-76.981985857143
CL MONTE UMBROSO 520	-12.116179836735,-76.981985857143
AV. ANGAMOS 1100	-12.113584,-77.040506
AV. ANGAMOS 1100	-12.113584,-77.040506
AV. ANGAMOS 1100	-12.113584,-77.040506
AV. ANGAMOS 1100	-12.113584,-77.040506
AV. ANGAMOS 1100	-12.113584,-77.040506
AV. ANGAMOS 1100	-12.113584,-77.040506
CL MONTE FLOR 587	-12.113298958904,-76.983217479452
AV. ANGAMOS 1100	-12.113584,-77.040506
AV. LAS GAVIOTAS 580	-12.176952561644,-77.005237191781
AV. ANGAMOS 1100	-12.113584,-77.040506
AV. ANGAMOS 1100	-12.113584,-77.040506
AV. ANGAMOS 1100	-12.113584,-77.040506
AV. ANGAMOS 1100	-12.113584,-77.040506
AV. ANGAMOS 1100	-12.113584,-77.040506
AV. ANGAMOS 1100	-12.113584,-77.040506
AV. ANGAMOS 1100	-12.113584,-77.040506
AV. ANGAMOS 1100	-12.113584,-77.040506
AV. ANGAMOS 1100	-12.113584,-77.040506
AV. ANGAMOS 1100	-12.113584,-77.040506
AV. ANGAMOS 1100	-12.113584,-77.040506
CL MONTE UMBROSO 415	-12.114911964678,-76.981283847458
CL MONTE UMBROSO 415	-12.114911964678,-76.981283847458
CL MONTE UMBROSO 415	-12.114911964678,-76.981283847458
CL MONTE UMBROSO 415	-12.114911964678,-76.981283847458
CL MONTE UMBROSO 415	-12.114911964678,-76.981283847458
CL MONTE UMBROSO 415	-12.114911964678,-76.981283847458
CL MONTE UMBROSO 415	-12.114982768846,-76.981322846154
CL MONTE UMBROSO 415	-12.114911964678,-76.981283847458
AV. ANGAMOS 1100	-12.113050999,-77.019508
AV. ANGAMOS 1100	-12.113067,-77.019681
AV. ANGAMOS 1100	-12.113079,-77.019832
AV. ANGAMOS 1100	-12.113183,-77.020187
AV. ANGAMOS 1100	-12.113101,-77.020198
AV. ANGAMOS 1100	-12.114094,-77.039866
AV. ANGAMOS 1100	-12.114177,-77.039929
AV. ANGAMOS 1100	-12.113584,-77.040506
