"date","qid","time_zone_name","activate_time","deactivate_time","provider_id","provider_name","provider_external_id","calendar_start_time","calendar_end_time"
"2016-01-28","565","Peru","","","3","test_Movistar1","TEST_LARI_INS_MOVISTAR1","09:00:00","18:30:00"
"2016-01-28","567","Peru","2016-01-28 11:07:00","","5","Técnico 2 UAT","UAT.TECHNICIAN2","09:00:00","18:30:00"
"2016-01-28","566","Peru","2016-01-28 10:41:00","","330","Tecnico Prueba","TEST.TECNICO","09:00:00","18:30:00"
"2016-01-28","634","Peru","","","355","TDPROUTING","BK_TDPROUTE","11:30:00","20:00:00"
"2016-01-28","635","Peru","","","357","TDPTech02","TEST.TDPTech2","09:00:00","20:00:00"
"2016-01-28","636","Peru","","","360","TDPTech05","TEST.TDPTech5","09:00:00","20:00:00"
"2016-01-28","637","Peru","","","361","TDPTech06","TEST.TDPTech6","09:00:00","20:00:00"
"2016-01-28","504","Peru","","","371","Calatel_Movistar1_INS","BK_CALATEL_M1_INS","09:00:00","20:00:00"
"2016-01-28","505","Peru","","","372","Cobra_Movistar1_INS","BK_COBRA_M1_INS","09:00:00","20:00:00"
"2016-01-28","506","Peru","","","373","Dominion_Movistar1_INS","BK_DOMINION_M1_INS","09:00:00","20:00:00"
"2016-01-28","633","Peru","","","374","Lari_Movistar1_INS","BK_LARI_M1_INS","09:00:00","20:00:00"
"2016-01-28","541","Peru","","","385","TECNICO DOMINION 01","TEST_DOMINION_01","09:00:00","20:00:00"
"2016-01-28","542","Peru","","","386","TECNICO DOMINION 02","TEST_DOMINION_02","09:00:00","20:00:00"
"2016-01-28","543","Peru","","","387","TECNICO DOMINION 03","TEST_DOMINION_03","09:00:00","20:00:00"
"2016-01-28","544","Peru","","","388","TECNICO DOMINION 04","TEST_DOMINION_04","09:00:00","20:00:00"
"2016-01-28","545","Peru","","","389","TECNICO DOMINION 05","TEST_DOMINION_05","09:00:00","20:00:00"
"2016-01-28","546","Peru","","","390","TECNICO DOMINION 06","TEST_DOMINION_06","09:00:00","20:00:00"
"2016-01-28","547","Peru","","","392","TECNICO DOMINION 08","TEST_DOMINION_08","09:00:00","20:00:00"
"2016-01-28","548","Peru","","","393","TECNICO DOMINION 09","TEST_DOMINION_09","09:00:00","20:00:00"
"2016-01-28","549","Peru","","","394","TECNICO DOMINION 10","TEST_DOMINION_10","09:00:00","20:00:00"
"2016-01-28","507","Peru","","","395","TECNICO COBRA 01","TEST_COBRA_01","09:00:00","20:00:00"
"2016-01-28","508","Peru","","","396","TECNICO COBRA 02","TEST_COBRA_02","09:00:00","20:00:00"
"2016-01-28","509","Peru","","","397","TECNICO COBRA 03","TEST_COBRA_03","09:00:00","20:00:00"
"2016-01-28","510","Peru","","","398","TECNICO COBRA 04","TEST_COBRA_04","09:00:00","20:00:00"
"2016-01-28","511","Peru","","","400","TECNICO COBRA 06","TEST_COBRA_06","09:00:00","20:00:00"
"2016-01-28","512","Peru","","","401","TECNICO COBRA 07","TEST_COBRA_07","09:00:00","20:00:00"
"2016-01-28","513","Peru","","","402","TECNICO COBRA 08","TEST_COBRA_08","09:00:00","20:00:00"
"2016-01-28","514","Peru","","","403","TECNICO COBRA 09","TEST_COBRA_09","09:00:00","20:00:00"
"2016-01-28","515","Peru","","","404","TECNICO COBRA 10","TEST_COBRA_10","09:00:00","20:00:00"
"2016-01-28","526","Peru","","","406","TECNICO CALATEL 02","TEST_CALATEL_02","09:00:00","20:00:00"
"2016-01-28","527","Peru","","","408","TECNICO CALATEL 04","TEST_CALATEL_04","09:00:00","20:00:00"
"2016-01-28","528","Peru","","","409","TECNICO CALATEL 05","TEST_CALATEL_05","09:00:00","20:00:00"
"2016-01-28","529","Peru","","","411","TECNICO CALATEL 07","TEST_CALATEL_07","09:00:00","20:00:00"
"2016-01-28","530","Peru","","","413","TECNICO CALATEL 09","TEST_CALATEL_09","09:00:00","20:00:00"
"2016-01-28","531","Peru","","","414","TECNICO CALATEL 10","TEST_CALATEL_10","09:00:00","20:00:00"
"2016-01-28","550","Peru","","","416","TECNICO DOMINION 11","TEST_DOMINION_11","09:00:00","20:00:00"
"2016-01-28","551","Peru","","","417","TECNICO DOMINION 12","TEST_DOMINION_12","09:00:00","20:00:00"
"2016-01-28","552","Peru","","","418","TECNICO DOMINION 13","TEST_DOMINION_13","09:00:00","20:00:00"
"2016-01-28","553","Peru","","","419","TECNICO DOMINION 14","TEST_DOMINION_14","09:00:00","20:00:00"
"2016-01-28","554","Peru","","","420","TECNICO DOMINION 15","TEST_DOMINION_15","09:00:00","20:00:00"
"2016-01-28","555","Peru","","","422","TECNICO DOMINION 17","TEST_DOMINION_17","09:00:00","20:00:00"
"2016-01-28","556","Peru","","","423","TECNICO DOMINION 18","TEST_DOMINION_18","09:00:00","20:00:00"
"2016-01-28","557","Peru","","","424","TECNICO DOMINION 19","TEST_DOMINION_19","09:00:00","20:00:00"
"2016-01-28","558","Peru","","","425","TECNICO DOMINION 20","TEST_DOMINION_20","09:00:00","20:00:00"
"2016-01-28","516","Peru","","","436","TECNICO COBRA 11","TEST_COBRA_11","09:00:00","20:00:00"
"2016-01-28","517","Peru","","","437","TECNICO COBRA 12","TEST_COBRA_12","09:00:00","20:00:00"
"2016-01-28","518","Peru","","","438","TECNICO COBRA 13","TEST_COBRA_13","09:00:00","20:00:00"
"2016-01-28","519","Peru","","","439","TECNICO COBRA 14","TEST_COBRA_14","09:00:00","20:00:00"
"2016-01-28","520","Peru","","","440","TECNICO COBRA 15","TEST_COBRA_15","09:00:00","20:00:00"
"2016-01-28","521","Peru","","","441","TECNICO COBRA 16","TEST_COBRA_16","09:00:00","20:00:00"
"2016-01-28","522","Peru","","","442","TECNICO COBRA 17","TEST_COBRA_17","09:00:00","20:00:00"
"2016-01-28","523","Peru","","","443","TECNICO COBRA 18","TEST_COBRA_18","09:00:00","20:00:00"
"2016-01-28","524","Peru","","","444","TECNICO COBRA 19","TEST_COBRA_19","09:00:00","20:00:00"
"2016-01-28","525","Peru","","","445","TECNICO COBRA 20","TEST_COBRA_20","09:00:00","20:00:00"
"2016-01-28","532","Peru","","","446","TECNICO CALATEL 11","TEST_CALATEL_11","09:00:00","20:00:00"
"2016-01-28","533","Peru","","","447","TECNICO CALATEL 12","TEST_CALATEL_12","09:00:00","20:00:00"
"2016-01-28","534","Peru","","","448","TECNICO CALATEL 13","TEST_CALATEL_13","09:00:00","20:00:00"
"2016-01-28","535","Peru","","","449","TECNICO CALATEL 14","TEST_CALATEL_14","09:00:00","20:00:00"
"2016-01-28","536","Peru","","","450","TECNICO CALATEL 15","TEST_CALATEL_15","09:00:00","20:00:00"
"2016-01-28","564","Peru","","","451","TECNICO CALATEL 16","TEST_CALATEL_16","09:00:00","20:00:00"
"2016-01-28","537","Peru","","","452","TECNICO CALATEL 17","TEST_CALATEL_17","09:00:00","20:00:00"
"2016-01-28","538","Peru","","","453","TECNICO CALATEL 18","TEST_CALATEL_!8","09:00:00","20:00:00"
"2016-01-28","539","Peru","","","454","TECNICO CALATEL 19","TEST_CALATEL_19","09:00:00","20:00:00"
"2016-01-28","540","Peru","","","455","TECNICO CALATEL 20","TEST_CALATEL_20","09:00:00","20:00:00"
