﻿id,nombre,nodo,empresa_id,zonal,tipo_trabajo,cod_liquidacion,sub_cod_liquidacion,observacion,tecnico_liquidacion,tecnologia,cod_franqueo,fecha_registro_franqueo,cantickets,atendidos,troba,empresa,amplificador,userCreated,fecharegistro,estadoActual,estado,imagenes
40,3/ZA/R001/2017-11-23,ZA,12,3,1,002,003,asdasdsad,5242205,2,,"2017-11-23 04:52:45",3,0,R001,ANOVO,,"juan carlos rojas toralva","2017-11-23 16:34:36",Liquidado,5,
39,2/ZA/R001/2017-11-22,ZA,14,2,2,123,123,123123,123,1,,"2017-11-23 04:46:33",22,1,R001,"Agencias Tercer",,"juan carlos rojas toralva","2017-11-22 18:14:15","En proceso",7,
